10 20 21
0 104.0193 52   1.1920  -3.4184  -4.0676  -1.7225  -3.4244  -0.5923  -3.9854  -2.4679  -2.5988   0.3014  -4.1029   4.0415   0.3874   6.1645  -3.6027   0.3519  -5.6501   0.4163  -1.7483   2.9137  -8.1620  97.5363 103.2328  85.8430 145.1766  83.9456  87.5115  98.8719 103.8665 118.2305  83.8117  89.5250 163.1103  81.6801 140.4552  70.2695 128.7008  92.1720  55.8959 103.3544 153.4262  97.7899 
1  88.6330 52   0.4169  -2.7926  -4.7590  -5.2152  -5.6707  -2.1554  -5.8192  -6.1547  -4.3330   0.1778  -3.8090   5.9815  -3.3859   6.5557  -3.6455   2.5321  -7.1140   2.4716  -1.3433   4.4381 -15.1970 102.5040  81.4242  84.6136  87.2338  70.8252  72.5940 100.1570  94.1168  57.5211  97.9224  78.9819  95.7585  85.7182 105.8546  68.7944  90.1544  97.7298  45.1782 173.3632  99.4374  71.4096 
2  72.8723 97  -1.9262  -5.8318  -4.7567  -6.5313  -6.5928  -1.8552  -8.6628  -8.1396  -7.1524  -0.8382  -4.5325   3.3132  -5.1054   4.5839  -6.4024   1.3368 -10.2921   1.0622  -3.8032   8.6178 -18.0439  64.1254  75.8633  63.3420  78.4826  49.3298  53.3580 100.2305  59.6703  45.8579  73.5386  64.9726  84.8438  64.7043  59.3016  41.9074  87.8867  96.9339  28.8781 188.9646  97.3869  50.7401 
3  63.3535 113  -1.8497  -2.7695  -6.2395  -6.0158  -7.2307  -2.1023  -9.3683  -7.3996  -7.4085  -4.1876  -6.1284   4.8226  -6.5023   4.8237  -6.8885   2.8896 -11.2120  -0.0426  -1.8053  10.8334 -23.1372  49.4398  90.4127  60.8274  86.8858  53.8286  71.7307  71.3222  41.4194  39.5570  78.7570  53.1774  90.9079  46.4387  45.1804  26.7607  54.9374  68.8441  19.9424 155.7407  88.5615  35.7524 
4  51.9581 122  -3.6584  -3.7028  -5.7544  -5.6736  -8.5081  -0.4402  -7.8282  -5.9592  -4.8722  -6.2043  -7.0371   4.1828  -7.5938   4.1637  -7.0714   3.3651 -14.5243  -0.0101  -6.1942   8.4989 -26.7231  35.9102  51.4871  43.6117  61.9842  45.0987  54.9061  52.7930  32.6099  25.5333  62.9301  50.4288  53.6500  40.5475  43.2528  28.6517  44.6747  67.3115  14.2440 162.5257  84.3143  34.6544 
5  44.5679 179  -3.6517  -4.3715  -6.3994  -4.7579  -6.4199   2.6902  -5.6140  -7.2488  -5.6955  -3.2889  -8.9339   1.8121  -9.4433   1.6101  -5.4269   3.8443 -14.9390   0.6835  -4.7993   8.5145 -27.9519  23.8432  36.6509  34.8205  71.3124  55.7525  36.7460  61.2512  34.5244  19.8845  61.9073  36.3902  28.4997  33.8427  42.8124  18.2053  29.3238  64.6335  10.7430 128.2455  79.8490  26.6870 
6  35.9959 248  -4.1939  -6.1456  -6.3465  -6.0731  -9.0018   2.8587  -6.2769  -7.2939  -3.8647  -4.9414  -9.2979   1.5473 -10.5029   1.0293  -4.7282   3.8016 -16.4281   0.8207  -6.9751   5.2268 -28.9496  22.5535  31.8584  21.2782  64.9377  36.8217  34.7773  43.4919  28.4662  12.7428  42.2718  37.2574  20.1157  24.8908  47.2118  12.5680  17.2678  45.1137   8.2759 122.1212  54.8613  27.0302 
7  26.4800 246  -3.3674  -5.4692  -8.9421  -3.9254 -10.4964   2.7536  -6.7200  -7.0306  -3.6129  -5.8401  -8.5584   1.2847 -11.1520   1.3249  -4.9416   3.3587 -17.4178  -0.0260  -7.0642   5.1797 -29.5445  18.3470  17.7476  14.9388  44.0501  24.9849  21.0645  45.8009  18.2398  15.3740  39.2980  27.7413  12.7014  16.7283  32.3024   7.3146  12.6733  42.5170   6.1642  66.6252  47.3540  24.1121 
8  23.1198 177  -4.4242  -5.7737  -8.6064  -2.2350 -10.0284   2.1446  -6.7644  -7.9614  -3.6494  -6.0438 -10.3130   0.8458 -11.9006   0.8484  -5.0593   3.7693 -18.6854   0.3372  -8.6700   5.0206 -31.4788  12.7143  15.1537  13.6096  30.3804  21.6320  16.5264  44.3088  22.1953  13.4085  37.1723  19.4231   8.1313  18.5174  25.5858   3.5228  10.0158  29.1006   5.2154  90.5599  27.2811  21.0605 
9  22.3008 247  -4.4770  -5.3843  -9.6052  -2.4901 -10.2674   3.7407  -8.1275  -5.9985  -2.6216  -5.7158 -11.5008   1.0400 -12.9041   1.8041  -5.6625   3.4738 -17.7846   0.5789  -9.2150   3.9679 -33.2497  15.1007  13.9609  19.9309  23.7456  14.0491  24.9176  32.4472  14.1531  10.7104  36.0781  14.1129   5.9879  14.3663  19.3587   3.3279   8.2695  39.8454   3.9520 100.7569  22.5547  30.6906 
10  18.4256 260  -3.9087  -5.7601  -9.4917  -3.7687 -10.6011   4.4370  -8.6621  -5.5401  -2.0158  -6.3596 -11.8605   0.6845 -12.4730   2.7465  -4.9130   3.8062 -18.4141   1.0889  -9.6599   2.7150 -33.9972  10.8754  11.6947  21.4621  30.9835  11.7779  12.1377  22.4829  15.9834   9.4833  27.4877   9.3212   2.9593  13.5616  12.4148   2.9714   7.0498  43.7400   3.2259  78.6461  18.0846  20.5937 
11  16.6180 260  -3.5498  -6.1216 -11.0049  -2.6681 -10.1216   4.1089  -8.3082  -3.4440  -2.4528  -6.6473 -10.9156   0.9037 -12.5699   1.6706  -4.8092   3.6740 -20.6234   0.8397 -10.6333   3.2785 -33.6776  15.6968   6.8900  15.5598  25.7422  11.7522   7.8208  23.9985  20.0604   7.8345  22.5553   7.4432   3.4179  10.1156   8.8477   2.0618   4.2488  45.1577   3.8555  65.9062  20.1480  19.8663 
12  14.9516 253  -4.3181  -6.0220 -10.3414  -2.5811 -10.0071   3.3948  -9.8555  -4.0364  -2.9046  -7.4449 -10.3978   1.2369 -12.2115   1.6545  -4.4399   3.5217 -21.3948   0.9061 -11.1819   2.8112 -33.5650  20.6097   8.0563  18.2046  39.3995   7.6223   8.5728  19.4085  12.7647   7.1494  17.8495   6.6370   3.1521  11.4306   5.7885   1.8854   2.9082  35.6204   4.8991  50.5841  12.6318  18.8091 
13  12.6438 250  -4.1489  -5.9486 -11.1361   0.8246  -9.8234   3.6600  -9.8159  -5.1214  -3.2056  -8.0007  -9.3660   1.1538 -12.6404   1.7708  -4.4656   2.8517 -20.4930   1.4454 -11.4904   2.8056 -35.4900  12.8521   8.3085  13.0986  50.9770   4.6708   9.1845  14.9863  13.6437   8.3599  11.7694   6.1212   2.3355   7.7542   5.9397   2.4084   4.0109  23.2729   3.1203  43.8902   8.4269  10.3881 
14  10.4319 232  -4.6693  -5.7015 -11.6500  -0.0541  -9.6870   4.0983  -9.5923  -5.7920  -3.1193  -8.0456 -10.3326   0.5565 -12.3175   1.1400  -4.2319   2.7337 -20.6419   1.7695 -12.5116   2.7421 -35.3787   9.2243   8.9717  10.7566  32.1998   2.9084   7.5870  10.2406  10.7821   5.2668   5.8418   6.9191   3.4384   8.5316   3.8634   1.5021   2.4287  27.4388   2.6582  45.6449   5.2430   7.6222 
15  10.3447 234  -5.0439  -5.7928 -12.2465  -1.5728  -9.6932   3.8772 -11.2150  -5.8314  -3.1292  -8.7518 -10.6021   0.2737 -12.8869   1.4721  -5.0709   2.6628 -21.7409   1.8031 -16.6154   3.8319 -37.6798   7.8963   7.1967  13.4375  28.8756   3.7902   7.0914   9.8665  12.8216   3.5318   5.5052   7.5971   2.7200  11.5490   3.9619   1.7134   1.7497  24.0531   2.0888  40.7436   3.2715  17.7772 
16   8.6029 304  -4.2247  -6.2469 -13.7620  -1.8450  -9.8960   3.8614 -10.4510  -6.6285  -3.0117  -8.8935 -11.2073  -0.1031 -13.0818   1.3434  -5.1278   2.4192 -21.0540   1.8359 -17.5278   4.2269 -37.5575   7.2898   5.5983   7.8554  18.4234   5.7436   6.0623   7.5414   8.4282   3.4986   4.2836   5.3298   1.7645  11.4512   3.7056   1.3106   1.3781  24.6111   1.6756  34.6227   2.5033  17.5835 
17   8.6030 254  -3.7561  -7.4346 -13.5611  -2.1864 -10.5328   3.9107 -10.5567  -6.7884  -2.8898  -8.8677 -11.3829  -0.0738 -13.4222   2.1712  -5.5650   2.5270 -18.6549   2.1476 -18.4173   4.3916 -37.7118   3.8776   5.0052   6.6722  16.8241   4.8723   8.4709   8.2203   7.2255   3.1475   5.6550   7.4501   1.6086  15.1920   1.7301   1.3047   1.4356  34.3489   2.0587  29.5274   2.9378  13.0977 
18   8.8259 282  -3.9056  -7.3937 -13.5384  -2.6856 -11.1243   3.1689 -11.5699  -7.1813  -2.9516  -9.4351 -12.1753  -0.1986 -14.6459   2.5034  -6.1695   2.6378 -20.3006   2.3356 -19.4184   3.7232 -41.0303   6.1321   4.1831   6.2891  22.5942   7.1855   4.8970   7.9753   5.5746   2.0205   7.1951   7.5009   1.5727  14.8344   2.3465   1.7482   1.5135  20.7931   1.6276  34.5692   3.4803  21.3109 
19   8.7876 262  -3.1482  -7.6597 -13.1918  -3.0163 -11.5986   3.2538 -12.1253  -7.2191  -2.7261  -9.0887 -11.7020  -0.2731 -14.2839   2.4282  -5.6907   2.8338 -20.9166   2.7911 -19.5157   3.8787 -40.2119   4.6185   5.1016   7.5372  16.4377   5.7399   4.8423   7.5359   4.8540   2.7648   8.6925   4.4879   1.2883  30.2116   2.2208   1.3825   1.8605  18.0364   1.5403  37.8555   2.4483  15.0836 
20   8.4361 269  -3.4670  -8.0630 -13.5018  -3.7938 -11.7467   3.3009 -12.1888  -7.1752  -2.6386  -9.5573 -12.0404  -0.1102 -13.7519   2.4069  -5.9761   2.9446 -21.1338   2.7603 -19.6638   3.3805 -40.3962   3.6171   5.3423   9.8152  12.0394   7.8233   4.2872   5.5489   4.1810   3.3372   7.5135   2.8011   0.8309  21.8919   1.2289   0.8998   1.8884  17.3748   1.3146  47.1592   2.4468  15.8165 
21   8.9249 291  -3.2650  -8.4833 -12.8895  -3.9472 -11.1736   3.5855 -12.4877  -7.4992  -2.7474  -9.4058 -11.9838  -0.0657 -14.6236   2.4768  -6.2789   2.4058 -22.4599   2.7983 -20.0891   3.4456 -39.8964   4.4840   7.0954   9.1731   7.9515   9.5318   2.9357   3.7184   6.8362   2.1611   5.9752   2.2462   0.5136  18.3754   1.8955   1.3656   2.2293  16.9443   1.8956  59.0626   1.9727  21.0595 
22   8.1880 246  -2.9304  -8.4577 -13.2305  -4.2402 -10.8541   3.4718 -12.2658  -7.6216  -2.6766  -8.9159 -12.7583  -0.1140 -15.0408   2.2562  -5.8143   2.3719 -22.9561   2.6262 -19.1452   3.0378 -42.1500   4.6250   5.9297   9.9852   7.4751   7.4547   3.1255   4.4811   6.0831   3.3085   4.1227   3.0557   0.4233  15.1817   1.8016   1.4179   2.3295  22.2872   1.9130  49.4623   2.1553  15.3303 
23   7.4421 353  -2.5055  -8.7205 -13.2921  -4.5052  -9.9128   3.2519 -12.5467  -6.9816  -2.4362  -8.7614 -12.8866  -0.0455 -14.1761   2.0290  -5.9721   2.0914 -24.0056   2.3738 -19.4828   2.5028 -42.8601   3.8440   6.4536   8.6168   5.6774   8.2801   2.5122   5.4844   4.0114   4.3653   3.2601   3.2665   0.5151  14.3873   1.3152   2.5693   2.7181  30.6324   1.4135  27.6851   1.9741  17.3015 
24   6.3941 262  -2.0395  -9.0918 -12.7964  -4.5379 -10.7575   3.3226 -12.6395  -6.9501  -2.6618  -9.4050 -12.7935  -0.1419 -14.4236   1.5553  -5.7509   1.8412 -24.5437   1.9006 -19.6093   2.3727 -42.9106   2.3447   4.5976   5.3561   4.9241   6.4033   2.9704   6.9832   3.5716   5.5754   2.5655   2.6765   0.5252  12.3818   1.2789   1.8036   2.2385  31.2534   1.4133  17.5026   1.7263  16.1847 
25   6.4859 320  -2.5008  -9.7069 -12.5136  -4.9006 -10.9253   3.1309 -12.9945  -6.8373  -3.4760  -8.9240 -12.1807  -0.2052 -14.4025   1.7275  -6.3890   1.6788 -24.6984   1.7405 -20.2658   2.4776 -43.8357   2.1873   3.9885   3.4417   5.8272   3.6457   2.6555   7.7654   3.3321   3.5666   2.0031   2.2358   0.6330  11.4466   1.5616   1.5081   4.4680  29.4189   1.2008  31.1164   1.3219  12.8787 
26   7.7742 291  -2.6716 -10.1039 -13.3338  -4.7328 -11.5349   2.9100 -13.5769  -7.0002  -3.6071  -9.1348 -12.1935  -0.0008 -16.4485   1.5106  -6.9467   1.6598 -25.7971   1.8863 -20.9882   2.4870 -45.8110   2.2131   5.8052   5.1904   5.2307   4.1339   2.4223   7.8662   2.7756   2.2713   2.3276   3.3791   0.6288  17.4194   1.0797   1.7873   5.5881  38.6594   1.1192  30.5834   1.2488  21.5291 
27   6.7189 303  -2.6311  -9.6557 -13.6308  -4.0327 -10.9557   2.3724 -13.5454  -7.4594  -3.3863  -9.2734 -12.4559   0.0929 -16.3500   1.3194  -7.2100   1.6397 -27.7188   1.7196 -20.4389   2.5439 -46.9129   2.2589   4.7659   5.1655   4.4613   5.5082   2.0400   8.9942   2.2933   2.3367   2.2346   3.5245   0.3393  15.1883   1.5820   0.9793   5.0593  27.8309   1.0243  16.2860   1.8244  27.3991 
28   6.6493 323  -2.7337  -9.4699 -13.7739  -3.6168  -9.9518   2.1860 -13.4062  -7.6003  -3.1178  -9.4111 -12.7298   0.1789 -16.5477   1.2489  -7.3154   1.7960 -28.1388   1.7419 -21.4803   2.7326 -46.8031   1.1994   3.8385   4.2121   3.4970   7.1001   1.3323   8.0960   2.0433   2.0357   2.4504   2.9454   0.2887  11.0102   1.7255   1.2444   5.3335  24.2373   0.9882  14.8695   2.2765  38.9105 
29   5.5533 314  -3.1239  -9.1720 -13.6815  -4.4113 -10.3582   2.1051 -13.3496  -8.0531  -3.4925  -9.7727 -13.2660   0.1749 -18.2336   1.5079  -7.3400   1.7295 -27.6020   2.0325 -20.9273   2.4885 -47.9378   1.3930   3.7028   3.0191   4.1816   5.1926   0.9563   6.4239   2.5127   2.6246   1.6385   2.9697   0.2621   8.5319   2.4792   0.9557   5.1564  16.9839   1.1449  15.4844   1.7769  29.2299 
30   5.2150 276  -3.1142  -9.4780 -13.9878  -4.4187 -10.2054   2.0546 -13.3613  -8.3960  -3.0820  -9.4853 -13.0977   0.2291 -18.7606   1.2537  -7.4171   1.8060 -27.5738   2.1437 -21.6165   2.9219 -49.6429   1.5609   5.5056   2.5475   3.4983   4.7575   1.0534   5.4802   2.2745   1.5970   1.9857   1.9788   0.2908   8.3751   1.8691   0.8914   5.0051  14.7177   1.4700  11.5947   1.7382  31.3235 
31   4.7069 289  -3.1143  -8.4707 -13.7723  -4.4804  -9.8110   1.9326 -13.2782  -8.3700  -2.8500  -9.7230 -13.2335   0.2657 -18.9251   1.1976  -7.3206   1.8645 -27.3355   1.8343 -21.4324   3.3332 -50.1334   1.3019   4.6651   2.2382   3.4324   2.4719   1.0624   5.1846   1.8476   1.2423   1.5938   1.5359   0.2548   9.8298   1.2523   1.1910   3.3418  17.9560   1.8243   9.4720   1.8902  25.2557 
32   6.5299 306  -2.9673  -8.9710 -14.7252  -4.8855 -10.4534   2.0168 -14.2458  -8.0531  -3.0592 -10.4716 -13.9954   0.1577 -20.8384   1.4114  -8.0274   2.0986 -28.7012   2.1914 -22.4111   3.1525 -53.9431   1.3747   5.4381   3.1635   2.7311   3.9026   1.3744   6.6043   2.2451   1.7339   2.6028   2.3712   0.2092  12.4680   1.2821   1.8287   2.6362  22.2132   1.9837  14.2130   1.4940  45.2570 
33   5.4094 267  -3.4963  -8.8290 -14.7214  -5.3705  -9.9438   1.8282 -14.5677  -8.4094  -3.2387 -10.3116 -14.0890   0.1376 -20.8290   1.4420  -7.8624   1.7288 -29.1234   2.1264 -21.3803   3.3909 -53.4468   1.5807   4.1294   2.0234   2.7242   3.4313   1.0509   5.1180   3.1733   1.6100   3.3259   1.9028   0.2819  10.6143   1.0336   1.4851   2.0134  15.4193   1.5501   9.5143   2.0602  39.5555 
34   4.3817 317  -3.2993  -8.1742 -14.4740  -5.9517 -10.0353   1.5854 -14.6358  -8.4794  -3.0942 -10.5086 -14.0954   0.1607 -21.4496   1.3703  -8.0009   1.6926 -29.6340   1.8059 -21.5511   3.3703 -54.4600   1.5005   3.8166   1.6646   2.8779   3.8478   0.8458   6.1452   2.7697   1.6849   3.3155   1.3469   0.3939   9.8348   1.1430   1.0953   1.6199  17.2173   2.0015   6.1256   1.4498  21.3200 
35   3.9614 299  -3.4537  -8.8114 -14.4326  -6.0660 -10.1006   1.7167 -15.4057  -8.4699  -2.4921 -10.8141 -14.0537   0.4006 -22.2306   0.8726  -7.9005   1.5093 -30.0975   2.1368 -21.4942   3.2213 -55.3913   1.0747   1.9225   1.5325   3.0389   4.1995   0.4890   3.5623   2.4530   1.2428   3.3743   1.3674   0.2658  11.3133   0.9659   1.5687   1.1763  12.2009   2.4160   5.3931   1.4874  22.1447 
36   3.0654 313  -3.4956  -8.5254 -14.3595  -6.3549  -9.7890   1.7571 -15.4012  -8.4202  -2.5452 -10.2109 -14.2854   0.5103 -22.5213   1.1538  -7.6705   1.5267 -29.5815   2.2959 -22.6582   3.1613 -54.8646   0.6924   2.9596   1.1245   3.1198   3.5134   0.5067   3.4757   2.0374   1.3956   2.9406   0.9323   0.2393   7.3393   0.6780   1.6849   0.7079   8.0383   1.7973   4.7394   1.1684  15.2818 
37   2.7964 320  -3.5086  -8.4563 -14.4828  -6.3772  -9.4819   1.6536 -14.9331  -8.3471  -2.5159 -10.0293 -14.5540   0.4747 -22.3898   1.1838  -7.8050   1.3443 -29.9260   2.4952 -23.1956   3.3106 -56.2843   0.3727   2.5861   0.9329   2.3038   3.2336   0.5091   2.8683   2.0080   0.9441   5.9707   0.9212   0.3357   4.1537   0.5349   1.0632   0.8437  10.8872   1.0855   5.4454   1.1910  10.5330 
38   2.3437 285  -3.4865  -8.3737 -14.3530  -6.3402  -9.3628   1.7297 -15.0482  -8.6339  -2.7143  -9.5724 -14.7443   0.5472 -23.1730   1.3530  -7.8709   1.6090 -30.0867   2.6260 -22.7556   3.4535 -55.9641   0.2609   2.5909   0.7194   2.5961   2.5008   0.3670   1.7817   2.2272   0.9457   4.0749   0.7640   0.2985   3.8300   0.5592   1.0974   0.5571   7.2727   1.2594   7.4886   0.7501   7.2773 
39   2.2661 321  -3.5270  -8.7494 -14.1726  -6.4035  -9.2497   1.6674 -14.6458  -8.4403  -2.5638  -9.8959 -14.6402   0.4157 -23.3326   1.2504  -7.8354   1.8309 -30.0358   2.6355 -23.4579   3.5298 -55.8861   0.4536   3.4490   0.6324   2.6051   1.7645   0.3904   1.2677   1.5555   0.8490   2.7979   0.8230   0.2963   2.8575   0.3595   0.9721   0.4443   7.4027   1.1897   7.5599   0.9910   8.9262 
40   1.9035 327  -3.6752  -9.0744 -14.1215  -6.0776  -9.5014   1.6457 -14.7745  -8.4437  -2.6607  -9.6666 -14.7357   0.3140 -22.7460   1.2727  -7.7562   1.8851 -29.5275   2.4097 -24.4303   3.3937 -56.2011   0.4039   3.2675   0.4942   2.0987   1.5034   0.2907   1.4911   1.4180   0.7489   2.3863   0.6087   0.2547   2.5635   0.3791   0.6352   0.2656  10.0651   1.0120   3.8491   0.6143   5.6238 
41   1.7146 322  -3.7131  -8.5935 -14.2322  -6.1215  -9.5630   1.6928 -14.9960  -8.2286  -2.8755  -9.7257 -14.8163   0.3726 -22.8191   1.1449  -7.8173   1.9514 -28.3196   2.1814 -24.2261   3.2949 -55.6835   0.4746   2.4379   0.3540   1.5761   1.2383   0.1655   1.0599   1.4579   0.5444   2.2702   0.6447   0.1381   2.5774   0.5131   0.7284   0.1588  10.9284   0.8605   2.9924   0.7390   4.1478 
42   1.6623 355  -3.4757  -8.2808 -14.3738  -6.2605  -9.7170   1.6626 -15.0147  -8.3278  -2.9896  -9.4532 -14.8237   0.2615 -22.5735   1.0239  -7.6871   2.1212 -27.3452   2.1356 -25.1534   3.1721 -55.9375   0.7585   2.2452   0.3947   1.1312   1.1630   0.1535   1.6547   1.0549   0.6638   1.8300   0.4993   0.1165   3.1439   0.3364   0.7446   0.1279   8.5122   0.7773   3.5359   0.8427   5.2217 
43   1.5462 331  -3.4138  -8.5875 -14.4679  -6.0440  -9.6561   1.5866 -15.2081  -8.4350  -3.0017  -9.6379 -14.7722   0.3124 -22.5061   0.9910  -7.7406   2.0707 -26.9976   1.9651 -25.6813   2.8469 -55.9459   0.7143   1.6712   0.4594   0.7755   0.9220   0.1538   1.5043   0.6595   0.5328   1.0565   0.2989   0.1854   3.8552   0.2038   0.6060   0.1808   6.0129   0.6285   2.7724   0.7430   8.5335 
44   1.4386 331  -3.5320  -8.7345 -14.5179  -6.1986  -9.5242   1.5616 -15.3198  -8.5218  -3.1049  -9.6075 -14.7428   0.3251 -23.1291   1.0475  -8.0150   2.0313 -27.8772   1.9773 -25.6024   2.8660 -56.5593   0.8652   1.1992   0.3908   0.6189   1.0849   0.1642   1.5495   0.5328   0.6510   0.9509   0.2168   0.1527   3.6175   0.2107   0.5128   0.1372   5.8027   0.5136   3.1742   0.6336   7.2313 
45   1.4577 329  -3.5904  -8.4327 -14.4329  -6.1078  -9.4709   1.4887 -15.2798  -8.6480  -3.0836  -9.6440 -14.8742   0.2575 -22.4191   0.8956  -8.0860   2.0112 -28.3544   1.8972 -25.3938   2.7445 -55.9473   0.6772   0.9830   0.2835   0.8015   1.0430   0.1394   1.6061   0.4610   0.7098   1.0611   0.1816   0.3274   7.2935   0.2417   0.3955   0.1346   5.2939   0.4006   2.0078   0.5742   5.9955 
46   3.5000 324  -3.8793  -8.6681 -15.2212  -6.3878 -10.0715   1.4719 -16.2643  -9.3366  -3.4683  -9.9523 -15.7681   0.1259 -24.0467   0.9173  -8.6098   2.0182 -30.1585   1.9892 -27.1762   2.8691 -59.5066   0.6112   1.5191   1.6095   1.0320   1.5469   0.1188   2.9499   1.0655   1.0577   1.7513   1.6426   0.3353   8.0813   0.2232   0.8886   0.1915  11.2229   0.3595   7.5464   0.7224  29.0237 
47   2.9506 337  -3.8338  -8.9238 -15.5269  -6.3776 -10.1066   1.4572 -16.0808  -9.3429  -3.5253  -9.8589 -16.1662   0.1365 -23.9925   1.0355  -8.8880   2.0907 -31.3750   2.0591 -27.6532   2.9248 -59.4022   0.3841   1.7982   1.2553   0.5942   1.2007   0.0887   2.1623   1.1801   0.8971   1.3207   1.3349   0.3927   6.5435   0.2524   0.8560   0.1244   7.7737   0.7202   4.8248   0.7000  27.5589 
48   2.9288 322  -3.6805  -8.7284 -15.5773  -6.1511 -10.0481   1.4737 -16.0324  -9.3167  -3.5852  -9.8279 -16.0680   0.0393 -23.2132   0.9048  -8.9744   2.0727 -31.9918   1.7677 -27.2799   2.9288 -58.5697   0.3448   1.5202   0.8578   0.7653   1.0738   0.0772   2.7448   1.5029   0.8634   0.9845   0.7677   0.3727   8.4962   0.2275   0.5944   0.1354   4.3925   0.8881   6.0592   0.6285  28.2078 
49   3.0623 325  -3.4668  -8.5783 -15.6468  -6.1543  -9.8836   1.4784 -16.2427  -9.3328  -3.4838  -9.9378 -15.8604   0.1275 -23.8577   0.8403  -8.8838   2.0852 -32.9442   1.6128 -26.2846   2.8297 -57.4184   0.2359   1.5252   0.7173   0.6710   1.0154   0.0541   2.8888   1.3477   0.8779   0.9019   0.6195   0.2177   5.0617   0.1619   0.7560   0.0848   4.1333   0.8848   9.7898   0.4021  31.9617 
