Evaluating mode...
using FeatureExtractor features
Number of features: 21 
Evaluating methodCE whose weight vector is in CE_BI_run01_formatlab.txt; evaluating for 100 episodes
Saving the trajectory transitions.
Not saving any action samples for each state on the trajectory
Number of RUNS=1
using FeatureExtractor features
Number of features: 30 
using SparseFeatureExtractor features
Number of features: 630 
using FeatureExtractor features
Number of features: 30 
samplesBin is null, new it
setting weights to 0
initialize(): Saving samples in binary (sparse) format
Saving samples in non-sparse format
Discount factor was set to 1.0
running agent with features=FeatureExtractor
Initializing weights to random
weights Initialized.
After reading from the weight file, the weight vector is 21 dimensional:
1.7355 -27.9023 -12.3488 -8.0775 -4.7457 -11.6872 -16.2636 -5.1657 -47.248 23.9255 -23.0378 8.112 -48.4653 5.6447 -24.1567 9.3576 -23.5505 4.4985 -11.2574 6.831 -95.5623 
using SparseFeatureExtractor features
Number of features: 630 
using FeatureExtractor features
Number of features: 30 
lambada=0.0 0.2 0.4 0.6 0.8 1.0 
using SparseFeatureExtractor features
Number of features: 630 
using FeatureExtractor features
Number of features: 30 
samplesBin is null, new it
Using SparseFeatureExtractor features
setting weights to 0
Discount factor was set to 1.0
deltaA=
1000.0 
numTestTames=500
using SparseFeatureExtractor features
Number of features: 630 
using FeatureExtractor features
Number of features: 30 
samplesBin is null, new it
Using SparseFeatureExtractor features
setting weights to 0
Discount factor was set to 1.0
deltaA=
1000.0 
numTestTames=500
using SparseFeatureExtractor features
Number of features: 630 
using FeatureExtractor features
Number of features: 30 
samplesBin is null, new it
Using SparseFeatureExtractor features
setting weights to 0
Discount factor was set to 1.0
deltaA=
1000.0 
numTestTames=500
using SparseFeatureExtractor features
Number of features: 630 
using FeatureExtractor features
Number of features: 30 
samplesBin is null, new it
Using SparseFeatureExtractor features
setting weights to 0
Discount factor was set to 1.0
deltaA=
1000.0 
numTestTames=500
using SparseFeatureExtractor features
Number of features: 630 
using FeatureExtractor features
Number of features: 30 
samplesBin is null, new it
Using SparseFeatureExtractor features
setting weights to 0
Discount factor was set to 1.0
deltaA=
1000.0 
numTestTames=500
using SparseFeatureExtractor features
Number of features: 630 
using FeatureExtractor features
Number of features: 30 
samplesBin is null, new it
Using SparseFeatureExtractor features
setting weights to 0
Discount factor was set to 1.0
deltaA=
1000.0 
numTestTames=500



------------------Run 0------------------


Starting game 0
accumulateAb:LSTDBinary policy evaluation Agent --injected with 365 samples
####deltaA = 1000.0
Solving the linear system: condition number is 1.2156563079386788
