%!PS-Adobe-3.0 EPSF-3.0
%%Creator: MATLAB, The MathWorks, Inc. Version 7.13.0.564 (R2011b). Operating System: Darwin 12.4.0 Darwin Kernel Version 12.4.0: Wed May  1 17:57:12 PDT 2013; root:xnu-2050.24.15~1/RELEASE_X86_64 x86_64.
%%Title: /Users/hengy/sztetris/results/apifromscratch_delta600_17runs.eps
%%CreationDate: 08/11/2013  09:18:23
%%DocumentNeededFonts: Helvetica
%%DocumentProcessColors: Cyan Magenta Yellow Black
%%LanguageLevel: 2
%%Pages: 1
%%BoundingBox:    25   186   586   606
%%EndComments

%%BeginProlog
% MathWorks dictionary
/MathWorks 160 dict begin
% definition operators
/bdef {bind def} bind def
/ldef {load def} bind def
/xdef {exch def} bdef
/xstore {exch store} bdef
% operator abbreviations
/c  /clip ldef
/cc /concat ldef
/cp /closepath ldef
/gr /grestore ldef
/gs /gsave ldef
/mt /moveto ldef
/np /newpath ldef
/cm /currentmatrix ldef
/sm /setmatrix ldef
/rm /rmoveto ldef
/rl /rlineto ldef
/s {show newpath} bdef
/sc {setcmykcolor} bdef
/sr /setrgbcolor ldef
/sg /setgray ldef
/w /setlinewidth ldef
/j /setlinejoin ldef
/cap /setlinecap ldef
/rc {rectclip} bdef
/rf {rectfill} bdef
% page state control
/pgsv () def
/bpage {/pgsv save def} bdef
/epage {pgsv restore} bdef
/bplot /gsave ldef
/eplot {stroke grestore} bdef
% orientation switch
/portraitMode 0 def /landscapeMode 1 def /rotateMode 2 def
% coordinate system mappings
/dpi2point 0 def
% font control
/FontSize 0 def
/FMS {/FontSize xstore findfont [FontSize 0 0 FontSize neg 0 0]
  makefont setfont} bdef
/reencode {exch dup where {pop load} {pop StandardEncoding} ifelse
  exch dup 3 1 roll findfont dup length dict begin
  { 1 index /FID ne {def}{pop pop} ifelse } forall
  /Encoding exch def currentdict end definefont pop} bdef
/isroman {findfont /CharStrings get /Agrave known} bdef
/FMSR {3 1 roll 1 index dup isroman {reencode} {pop pop} ifelse
  exch FMS} bdef
/csm {1 dpi2point div -1 dpi2point div scale neg translate
 dup landscapeMode eq {pop -90 rotate}
  {rotateMode eq {90 rotate} if} ifelse} bdef
% line types: solid, dotted, dashed, dotdash
/SO { [] 0 setdash } bdef
/DO { [.5 dpi2point mul 4 dpi2point mul] 0 setdash } bdef
/DA { [6 dpi2point mul] 0 setdash } bdef
/DD { [.5 dpi2point mul 4 dpi2point mul 6 dpi2point mul 4
  dpi2point mul] 0 setdash } bdef
% macros for lines and objects
/L {lineto stroke} bdef
/MP {3 1 roll moveto 1 sub {rlineto} repeat} bdef
/AP {{rlineto} repeat} bdef
/PDlw -1 def
/W {/PDlw currentlinewidth def setlinewidth} def
/PP {closepath eofill} bdef
/DP {closepath stroke} bdef
/MR {4 -2 roll moveto dup  0 exch rlineto exch 0 rlineto
  neg 0 exch rlineto closepath} bdef
/FR {MR stroke} bdef
/PR {MR fill} bdef
/L1i {{currentfile picstr readhexstring pop} image} bdef
/tMatrix matrix def
/MakeOval {newpath tMatrix currentmatrix pop translate scale
0 0 1 0 360 arc tMatrix setmatrix} bdef
/FO {MakeOval stroke} bdef
/PO {MakeOval fill} bdef
/PD {currentlinewidth 2 div 0 360 arc fill
   PDlw -1 eq not {PDlw w /PDlw -1 def} if} def
/FA {newpath tMatrix currentmatrix pop translate scale
  0 0 1 5 -2 roll arc tMatrix setmatrix stroke} bdef
/PA {newpath tMatrix currentmatrix pop	translate 0 0 moveto scale
  0 0 1 5 -2 roll arc closepath tMatrix setmatrix fill} bdef
/FAn {newpath tMatrix currentmatrix pop translate scale
  0 0 1 5 -2 roll arcn tMatrix setmatrix stroke} bdef
/PAn {newpath tMatrix currentmatrix pop translate 0 0 moveto scale
  0 0 1 5 -2 roll arcn closepath tMatrix setmatrix fill} bdef
/vradius 0 def /hradius 0 def /lry 0 def
/lrx 0 def /uly 0 def /ulx 0 def /rad 0 def
/MRR {/vradius xdef /hradius xdef /lry xdef /lrx xdef /uly xdef
  /ulx xdef newpath tMatrix currentmatrix pop ulx hradius add uly
  vradius add translate hradius vradius scale 0 0 1 180 270 arc 
  tMatrix setmatrix lrx hradius sub uly vradius add translate
  hradius vradius scale 0 0 1 270 360 arc tMatrix setmatrix
  lrx hradius sub lry vradius sub translate hradius vradius scale
  0 0 1 0 90 arc tMatrix setmatrix ulx hradius add lry vradius sub
  translate hradius vradius scale 0 0 1 90 180 arc tMatrix setmatrix
  closepath} bdef
/FRR {MRR stroke } bdef
/PRR {MRR fill } bdef
/MlrRR {/lry xdef /lrx xdef /uly xdef /ulx xdef /rad lry uly sub 2 div def
  newpath tMatrix currentmatrix pop ulx rad add uly rad add translate
  rad rad scale 0 0 1 90 270 arc tMatrix setmatrix lrx rad sub lry rad
  sub translate rad rad scale 0 0 1 270 90 arc tMatrix setmatrix
  closepath} bdef
/FlrRR {MlrRR stroke } bdef
/PlrRR {MlrRR fill } bdef
/MtbRR {/lry xdef /lrx xdef /uly xdef /ulx xdef /rad lrx ulx sub 2 div def
  newpath tMatrix currentmatrix pop ulx rad add uly rad add translate
  rad rad scale 0 0 1 180 360 arc tMatrix setmatrix lrx rad sub lry rad
  sub translate rad rad scale 0 0 1 0 180 arc tMatrix setmatrix
  closepath} bdef
/FtbRR {MtbRR stroke } bdef
/PtbRR {MtbRR fill } bdef
/stri 6 array def /dtri 6 array def
/smat 6 array def /dmat 6 array def
/tmat1 6 array def /tmat2 6 array def /dif 3 array def
/asub {/ind2 exch def /ind1 exch def dup dup
  ind1 get exch ind2 get sub exch } bdef
/tri_to_matrix {
  2 0 asub 3 1 asub 4 0 asub 5 1 asub
  dup 0 get exch 1 get 7 -1 roll astore } bdef
/compute_transform {
  dmat dtri tri_to_matrix tmat1 invertmatrix 
  smat stri tri_to_matrix tmat2 concatmatrix } bdef
/ds {stri astore pop} bdef
/dt {dtri astore pop} bdef
/db {2 copy /cols xdef /rows xdef mul dup 3 mul string
  currentfile 
  3 index 0 eq {/ASCIIHexDecode filter}
  {/ASCII85Decode filter 3 index 2 eq {/RunLengthDecode filter} if }
  ifelse exch readstring pop
  dup 0 3 index getinterval /rbmap xdef
  dup 2 index dup getinterval /gbmap xdef
  1 index dup 2 mul exch getinterval /bbmap xdef pop pop}bdef
/it {gs np dtri aload pop moveto lineto lineto cp c
  cols rows 8 compute_transform 
  rbmap gbmap bbmap true 3 colorimage gr}bdef
/il {newpath moveto lineto stroke}bdef
currentdict end def
%%EndProlog

%%BeginSetup
MathWorks begin

0 cap

end
%%EndSetup

%%Page: 1 1
%%BeginPageSetup
%%PageBoundingBox:    25   186   586   606
MathWorks begin
bpage
%%EndPageSetup

%%BeginObject: obj1
bplot

/dpi2point 12 def
portraitMode 0300 7272 csm

    0     0  6732  5033 rc
85 dict begin %Colortable dictionary
/c0 { 0.000000 0.000000 0.000000 sr} bdef
/c1 { 1.000000 1.000000 1.000000 sr} bdef
/c2 { 0.900000 0.000000 0.000000 sr} bdef
/c3 { 0.000000 0.820000 0.000000 sr} bdef
/c4 { 0.000000 0.000000 0.800000 sr} bdef
/c5 { 0.910000 0.820000 0.320000 sr} bdef
/c6 { 1.000000 0.260000 0.820000 sr} bdef
/c7 { 0.000000 0.820000 0.820000 sr} bdef
c0
1 j
1 sg
   0    0 6733 5034 rf
6 w
0 4102 5217 0 0 -4102 875 4479 4 MP
PP
-5217 0 0 4102 5217 0 0 -4102 875 4479 5 MP stroke
4 w
DO
SO
6 w
0 sg
 875 4479 mt 6092 4479 L
 875  377 mt 6092  377 L
 875 4479 mt  875  377 L
6092 4479 mt 6092  377 L
 875 4479 mt 6092 4479 L
 875 4479 mt  875  377 L
 875 4479 mt  875 4426 L
 875  377 mt  875  429 L
%%IncludeResource: font Helvetica
/Helvetica /ISOLatin1Encoding 120 FMSR

 842 4624 mt 
(0) s
1396 4479 mt 1396 4426 L
1396  377 mt 1396  429 L
1330 4624 mt 
(10) s
1918 4479 mt 1918 4426 L
1918  377 mt 1918  429 L
1852 4624 mt 
(20) s
2440 4479 mt 2440 4426 L
2440  377 mt 2440  429 L
2374 4624 mt 
(30) s
2961 4479 mt 2961 4426 L
2961  377 mt 2961  429 L
2895 4624 mt 
(40) s
3483 4479 mt 3483 4426 L
3483  377 mt 3483  429 L
3417 4624 mt 
(50) s
4005 4479 mt 4005 4426 L
4005  377 mt 4005  429 L
3939 4624 mt 
(60) s
4526 4479 mt 4526 4426 L
4526  377 mt 4526  429 L
4460 4624 mt 
(70) s
5048 4479 mt 5048 4426 L
5048  377 mt 5048  429 L
4982 4624 mt 
(80) s
5570 4479 mt 5570 4426 L
5570  377 mt 5570  429 L
5504 4624 mt 
(90) s
6092 4479 mt 6092 4426 L
6092  377 mt 6092  429 L
5992 4624 mt 
(100) s
 875 4479 mt  927 4479 L
6092 4479 mt 6039 4479 L
 637 4523 mt 
(-20) s
 875 4068 mt  927 4068 L
6092 4068 mt 6039 4068 L
 774 4112 mt 
(0) s
 875 3658 mt  927 3658 L
6092 3658 mt 6039 3658 L
 707 3702 mt 
(20) s
 875 3248 mt  927 3248 L
6092 3248 mt 6039 3248 L
 707 3292 mt 
(40) s
 875 2838 mt  927 2838 L
6092 2838 mt 6039 2838 L
 707 2882 mt 
(60) s
 875 2428 mt  927 2428 L
6092 2428 mt 6039 2428 L
 707 2472 mt 
(80) s
 875 2017 mt  927 2017 L
6092 2017 mt 6039 2017 L
 640 2061 mt 
(100) s
 875 1607 mt  927 1607 L
6092 1607 mt 6039 1607 L
 640 1651 mt 
(120) s
 875 1197 mt  927 1197 L
6092 1197 mt 6039 1197 L
 640 1241 mt 
(140) s
 875  787 mt  927  787 L
6092  787 mt 6039  787 L
 640  831 mt 
(160) s
 875  377 mt  927  377 L
6092  377 mt 6039  377 L
 640  421 mt 
(180) s
 875 4479 mt 6092 4479 L
 875  377 mt 6092  377 L
 875 4479 mt  875  377 L
6092 4479 mt 6092  377 L
gs 875 377 5218 4103 rc
/c8 { 0.000000 0.000000 1.000000 sr} bdef
c8
53 -94 52 421 52 698 52 128 52 -460 53 -873 52 36 52 -96 
52 321 52 500 52 536 53 -388 52 -514 52 -478 52 -345 52 192 
52 59 53 -24 52 611 52 480 52 -200 52 63 52 -252 53 -645 
52 -254 52 141 52 140 52 -69 52 95 53 595 52 85 52 220 
52 -336 52 469 52 -201 53 -753 52 -325 52 47 52 131 52 355 
52 221 53 343 52 347 52 167 52 61 52 -661 52 -500 53 -4 
52 494 52 50 52 216 52 -780 53 -314 52 401 52 374 52 4 
52 202 52 -818 53 -81 52 -261 52 129 52 350 52 355 52 712 
53 82 52 -269 52 -377 52 -692 52 -225 52 26 53 494 52 14 
52 25 52 -162 52 -617 52 -440 53 -289 52 -37 52 -14 52 -11 
52 2 52 5 53 -2 52 -2 52 1 52 -4 52 3 52 2 
53 7 52 -1 52 -3 52 0 52 -8 52 -1 53 1 52 4 
52 1 52 -6 52 1 927 4086 100 MP stroke
/c9 { 0.000000 0.500000 0.000000 sr} bdef
c9
53 -341 52 -71 52 123 52 113 52 186 53 374 52 -352 52 193 
52 196 52 -597 52 445 53 73 52 -12 52 -138 52 713 52 186 
52 -445 53 -669 52 -632 52 -53 52 296 52 44 52 -450 53 -315 
52 -477 52 774 52 -408 52 341 52 178 53 95 52 195 52 -209 
52 -28 52 304 52 165 53 226 52 -767 52 -446 52 -333 52 -90 
52 -56 53 -21 52 -6 52 3 52 -9 52 -6 52 -3 53 -2 
52 -4 52 3 52 -1 52 -2 53 2 52 3 52 -6 52 2 
52 0 52 0 53 -2 52 2 52 1 52 -2 52 2 52 -3 
53 2 52 -2 52 1 52 1 52 9 52 -8 53 1 52 -2 
52 0 52 -2 52 1 52 3 53 -1 52 -1 52 5 52 1 
52 -2 52 3 53 4 52 -9 52 0 52 -1 52 1 52 1 
53 2 52 -2 52 -1 52 0 52 1 52 -1 53 -2 52 7 
52 2 52 3 52 -12 927 4086 100 MP stroke
/c10 { 1.000000 0.000000 0.000000 sr} bdef
c10
53 146 52 209 52 211 52 196 52 553 53 -1031 52 -341 52 64 
52 -30 52 -447 52 346 53 764 52 860 52 -1430 52 -124 52 297 
52 337 53 71 52 -30 52 -299 52 400 52 -563 52 -593 53 -80 
52 60 52 280 52 489 52 -248 52 -331 53 -75 52 -63 52 -2 
52 117 52 -60 52 139 53 -15 52 248 52 72 52 317 52 -62 
52 -432 53 -139 52 -116 52 42 52 -26 52 136 52 64 53 56 
52 -107 52 196 52 -85 52 -252 53 118 52 -132 52 23 52 -123 
52 239 52 183 53 224 52 182 52 -191 52 -438 52 -137 52 -66 
53 157 52 -30 52 302 52 293 52 372 52 -268 53 -378 52 -87 
52 -10 52 -41 52 -183 52 -8 53 40 52 -237 52 73 52 -233 
52 319 52 -148 53 131 52 120 52 -80 52 -378 52 -337 52 -198 
53 -35 52 -2 52 -9 52 -7 52 1 52 -1 53 0 52 4 
52 -1 52 2 52 -6 927 4087 100 MP stroke
/c11 { 0.000000 0.750000 0.750000 sr} bdef
c11
53 61 52 228 52 20 52 -143 52 -131 53 99 52 -86 52 69 
52 -124 52 1 52 9 53 -64 52 -18 52 45 52 157 52 -25 
52 8 53 51 52 145 52 -94 52 -45 52 -26 52 -19 53 85 
52 37 52 178 52 -35 52 -145 52 -36 53 -106 52 306 52 -75 
52 -64 52 -215 52 -66 53 185 52 -64 52 2 52 -150 52 41 
52 27 53 -58 52 113 52 -96 52 81 52 -40 52 81 53 -9 
52 63 52 36 52 13 52 -15 53 -22 52 -50 52 -63 52 178 
52 33 52 -67 53 45 52 189 52 -67 52 -244 52 -4 52 -115 
53 129 52 19 52 -134 52 121 52 178 52 -131 53 -90 52 99 
52 -94 52 211 52 -96 52 -200 53 25 52 128 52 -95 52 -16 
52 74 52 131 53 -232 52 256 52 -107 52 66 52 88 52 333 
53 -108 52 -325 52 -208 52 -133 52 -137 52 -171 53 -138 52 -31 
52 -9 52 -4 52 -2 927 4088 100 MP stroke
/c12 { 0.750000 0.000000 0.750000 sr} bdef
c12
53 -1128 52 381 52 141 52 -450 52 -540 53 -124 52 33 52 484 
52 198 52 198 52 1518 53 -1152 52 -671 52 -199 52 -156 52 -69 
52 51 53 94 52 50 52 95 52 211 52 249 52 48 53 127 
52 -562 52 -102 52 -173 52 -260 52 206 53 94 52 343 52 330 
52 -66 52 -521 52 270 53 184 52 -199 52 -346 52 96 52 110 
52 -87 53 111 52 397 52 326 52 611 52 -426 52 -474 53 -189 
52 206 52 421 52 219 52 39 53 -349 52 55 52 -467 52 108 
52 654 52 -353 53 174 52 -63 52 -288 52 -408 52 313 52 416 
53 267 52 -465 52 -319 52 -148 52 107 52 353 53 439 52 232 
52 -518 52 -797 52 -116 52 -258 53 27 52 34 52 -107 52 3 
52 128 52 156 53 130 52 -156 52 147 52 844 52 -107 52 211 
53 -1240 52 -641 52 -323 52 -22 52 -3 52 -14 53 0 52 4 
52 -7 52 1 52 -2 927 4088 100 MP stroke
/c13 { 0.750000 0.750000 0.000000 sr} bdef
c13
53 203 52 788 52 -385 52 -51 52 324 53 -705 52 -334 52 -50 
52 -115 52 83 52 731 53 484 52 166 52 -29 52 -418 52 -727 
52 -194 53 -60 52 97 52 385 52 784 52 362 52 -371 53 -95 
52 -899 52 -406 52 29 52 381 52 14 53 391 52 452 52 426 
52 -43 52 662 52 22 53 -4 52 -140 52 294 52 -512 52 -1491 
52 -2 53 -215 52 88 52 206 52 460 52 585 52 -269 53 -357 
52 -195 52 -382 52 -34 52 212 53 266 52 502 52 -321 52 -615 
52 -230 52 150 53 284 52 200 52 359 52 252 52 -844 52 -356 
53 -44 52 24 52 -54 52 275 52 258 52 652 53 493 52 -795 
52 -380 52 -413 52 -157 52 258 53 -254 52 709 52 396 52 452 
52 -169 52 -503 53 -615 52 -85 52 38 52 -41 52 252 52 1058 
53 112 52 -290 52 -1152 52 -526 52 -244 52 -288 53 -30 52 -21 
52 4 52 0 52 -1 927 4085 100 MP stroke
0.25 sg
53 -998 52 -598 52 251 52 254 52 191 53 87 52 377 52 793 
52 81 52 -78 52 -1329 53 -597 52 -192 52 235 52 385 52 284 
52 -60 53 183 52 416 52 -68 52 202 52 -90 52 418 53 66 
52 59 52 -16 52 -173 52 -105 52 -9 53 18 52 -162 52 139 
52 -417 52 -359 52 -677 53 -153 52 -113 52 266 52 62 52 491 
52 -213 53 536 52 89 52 108 52 551 52 170 52 -95 53 -271 
52 -327 52 -1180 52 -215 52 103 53 141 52 222 52 193 52 -112 
52 -62 52 342 53 152 52 604 52 -400 52 -727 52 -305 52 137 
53 38 52 133 52 95 52 -250 52 207 52 23 53 471 52 238 
52 460 52 -941 52 -313 52 -559 53 -67 52 -268 52 -25 52 -69 
52 -67 52 1 53 -41 52 7 52 -3 52 46 52 -63 52 9 
53 -38 52 35 52 -76 52 -135 52 -15 52 -12 53 2 52 2 
52 7 52 -6 52 -5 927 4088 100 MP stroke
c8
53 161 52 732 52 986 52 -622 52 -463 53 -183 52 -461 52 -45 
52 226 52 851 52 14 53 -194 52 -647 52 -437 52 -347 52 107 
52 147 53 294 52 585 52 409 52 324 52 -598 52 -185 53 -769 
52 -231 52 68 52 308 52 365 52 180 53 -95 52 -143 52 -227 
52 -371 52 -323 52 3 53 18 52 299 52 262 52 -165 52 -188 
52 -126 53 -61 52 -5 52 278 52 156 52 -11 52 81 53 -28 
52 153 52 -7 52 362 52 622 53 156 52 -333 52 -1217 52 -273 
52 7 52 98 53 216 52 -3 52 -68 52 403 52 -37 52 -237 
53 -144 52 191 52 -197 52 -116 52 66 52 92 53 -121 52 -156 
52 -58 52 28 52 247 52 592 53 -13 52 -197 52 235 52 78 
52 -468 52 -313 53 -132 52 151 52 -22 52 419 52 299 52 79 
53 25 52 91 52 136 52 450 52 -597 52 -1128 53 -570 52 -55 
52 -11 52 4 52 -12 927 4088 100 MP stroke
c9
53 22 52 93 52 6 52 31 52 -2 53 109 52 8 52 19 
52 170 52 -151 52 243 53 385 52 192 52 220 52 5 52 -320 
52 -566 53 85 52 -436 52 -119 52 -123 52 -72 52 -67 53 -24 
52 -78 52 -58 52 -74 52 25 52 17 53 29 52 22 52 -43 
52 14 52 64 52 -53 53 31 52 167 52 -36 52 115 52 -73 
52 -4 53 -59 52 -15 52 -93 52 107 52 -61 52 15 53 -21 
52 -42 52 9 52 39 52 59 53 16 52 -58 52 3 52 -41 
52 59 52 87 53 48 52 -76 52 -29 52 65 52 143 52 97 
53 -243 52 84 52 125 52 -67 52 -109 52 231 53 190 52 -250 
52 117 52 148 52 -134 52 -112 53 132 52 196 52 -123 52 10 
52 247 52 224 53 349 52 -918 52 -717 52 -105 52 -7 52 -8 
53 5 52 -3 52 -4 52 -9 52 -6 52 1 53 7 52 -2 
52 -5 52 -3 52 4 927 4081 100 MP stroke
c10
53 296 52 -399 52 128 52 2 52 146 53 -234 52 -150 52 207 
52 -59 52 18 52 -32 53 119 52 -102 52 52 52 -27 52 -204 
52 178 53 -88 52 493 52 264 52 -618 52 -281 52 75 53 -71 
52 169 52 74 52 -96 52 117 52 -1 53 -71 52 -17 52 305 
52 -234 52 -158 52 155 53 51 52 -34 52 58 52 60 52 39 
52 -146 53 -69 52 327 52 -345 52 -80 52 811 52 32 53 -160 
52 662 52 -488 52 -1209 52 -484 53 -110 52 -30 52 -8 52 -3 
52 0 52 1 53 3 52 3 52 1 52 2 52 -8 52 3 
53 0 52 -2 52 3 52 -3 52 -1 52 6 53 -3 52 0 
52 0 52 13 52 2 52 -6 53 -7 52 -4 52 4 52 -3 
52 2 52 -3 53 2 52 5 52 1 52 -7 52 8 52 5 
53 5 52 -7 52 1 52 -7 52 2 52 3 53 -3 52 1 
52 -3 52 -6 52 -3 927 4088 100 MP stroke
c11
53 -37 52 77 52 58 52 -1 52 -36 53 77 52 -13 52 59 
52 38 52 193 52 -155 53 50 52 47 52 -116 52 40 52 -16 
52 1 53 72 52 107 52 -80 52 180 52 -67 52 -66 53 4 
52 -190 52 57 52 96 52 -166 52 216 53 -97 52 -49 52 121 
52 58 52 -92 52 146 53 -119 52 16 52 -152 52 59 52 -46 
52 6 53 -93 52 58 52 -50 52 -121 52 2 52 -35 53 11 
52 -14 52 -2 52 50 52 -68 53 51 52 39 52 -69 52 20 
52 -43 52 48 53 -13 52 -33 52 -25 52 165 52 49 52 59 
53 -50 52 241 52 172 52 53 52 161 52 115 53 37 52 -191 
52 6 52 206 52 64 52 -379 53 455 52 1139 52 159 52 -887 
52 -244 52 -201 53 -467 52 -302 52 -84 52 -346 52 -373 52 -43 
53 -8 52 -3 52 0 52 -7 52 1 52 4 53 2 52 -8 
52 0 52 4 52 -5 927 4087 100 MP stroke
c12
53 -467 52 -151 52 173 52 195 52 -65 53 -7 52 -144 52 444 
52 358 52 141 52 121 53 -572 52 -476 52 150 52 -239 52 357 
52 276 53 403 52 123 52 63 52 -407 52 -484 52 -187 53 116 
52 -99 52 379 52 347 52 458 52 77 53 -476 52 -374 52 -309 
52 -231 52 307 52 396 53 56 52 248 52 214 52 99 52 -802 
52 -362 53 -241 52 407 52 411 52 52 52 -37 52 343 53 506 
52 -221 52 -517 52 -298 52 -379 53 -200 52 92 52 457 52 350 
52 333 52 -319 53 -454 52 -279 52 -132 52 61 52 313 52 66 
53 423 52 344 52 192 52 259 52 -1128 52 -455 53 -144 52 213 
52 417 52 816 52 -264 52 -92 53 126 52 -284 52 -659 52 -637 
52 -423 52 -42 53 -11 52 -3 52 0 52 -1 52 0 52 4 
53 -3 52 -1 52 1 52 6 52 4 52 2 53 -1 52 -8 
52 2 52 -4 52 -1 927 4086 100 MP stroke
c13
53 35 52 388 52 326 52 241 52 659 53 196 52 -98 52 4 
52 -361 52 -894 52 -286 53 -188 52 -4 52 384 52 326 52 624 
52 9 53 -619 52 -476 52 -219 52 69 52 329 52 196 53 -473 
52 -448 52 96 52 -135 52 541 52 127 53 78 52 313 52 -96 
52 -861 52 -202 52 343 53 -132 52 830 52 363 52 -249 52 304 
52 -842 53 -25 52 -302 52 41 52 710 52 53 52 479 53 -207 
52 115 52 -820 52 -668 52 171 53 3 52 295 52 355 52 -75 
52 555 52 238 53 -496 52 -767 52 -38 52 -98 52 230 52 55 
53 180 52 933 52 -389 52 -169 52 -701 52 1 53 16 52 978 
52 -75 52 543 52 -70 52 -53 53 -232 52 -1429 52 -407 52 -194 
52 -38 52 -9 53 -2 52 1 52 -1 52 -6 52 -1 52 1 
53 3 52 2 52 -6 52 2 52 2 52 1 53 0 52 3 
52 -1 52 -3 52 -2 927 4086 100 MP stroke
0.25 sg
53 57 52 -65 52 -91 52 304 52 -44 53 259 52 204 52 125 
52 89 52 305 52 -38 53 -41 52 -95 52 -73 52 123 52 -475 
52 -125 53 271 52 -114 52 131 52 -164 52 142 52 -241 53 -125 
52 -216 52 -21 52 -107 52 -7 52 -50 53 -158 52 -83 52 72 
52 -16 52 70 52 81 53 120 52 123 52 78 52 287 52 219 
52 -146 53 -139 52 182 52 -92 52 -448 52 -99 52 -106 53 59 
52 -73 52 112 52 103 52 55 53 -67 52 183 52 306 52 153 
52 122 52 -367 53 -266 52 66 52 -212 52 164 52 -57 52 195 
53 359 52 -314 52 -143 52 439 52 107 52 2 53 -130 52 81 
52 81 52 -175 52 66 52 -58 53 -219 52 266 52 138 52 -101 
52 -122 52 -248 53 -71 52 83 52 -351 52 -161 52 187 52 221 
53 -37 52 -110 52 95 52 -478 52 -503 52 -63 53 -10 52 -7 
52 0 52 -1 52 -6 927 4089 100 MP stroke
c8
53 274 52 77 52 -106 52 676 52 -582 53 -147 52 229 52 228 
52 -524 52 -850 52 -323 53 331 52 -108 52 497 52 623 52 -243 
52 361 53 -618 52 -832 52 238 52 -61 52 30 52 177 53 101 
52 144 52 163 52 -15 52 587 52 158 53 -516 52 -528 52 -190 
52 374 52 9 52 -43 53 223 52 223 52 11 52 6 52 279 
52 -304 53 202 52 -215 52 -231 52 -588 52 -200 52 -4 53 -30 
52 400 52 368 52 -17 52 115 53 380 52 -236 52 291 52 400 
52 -479 52 -439 53 -1052 52 -519 52 -145 52 -12 52 -10 52 -7 
53 -7 52 0 52 0 52 1 52 0 52 -1 53 0 52 -1 
52 -1 52 0 52 0 52 2 53 -1 52 -1 52 5 52 2 
52 -2 52 0 53 0 52 -1 52 3 52 1 52 -5 52 -2 
53 0 52 0 52 -1 52 4 52 1 52 -3 53 -2 52 2 
52 2 52 1 52 -3 927 4086 100 MP stroke
c9
53 -283 52 78 52 109 52 -59 52 96 53 -11 52 -74 52 11 
52 -242 52 145 52 -44 53 116 52 12 52 -205 52 -20 52 120 
52 199 53 114 52 -261 52 54 52 -27 52 -237 52 150 53 58 
52 79 52 238 52 -202 52 -241 52 195 53 -54 52 -29 52 -63 
52 -4 52 -161 52 94 53 152 52 -121 52 309 52 -214 52 -60 
52 402 53 -202 52 -421 52 191 52 146 52 -14 52 -56 53 -144 
52 -144 52 144 52 -10 52 149 53 46 52 -62 52 -21 52 87 
52 12 52 280 53 -349 52 -150 52 103 52 52 52 189 52 -559 
53 -527 52 -112 52 -133 52 -110 52 -23 52 -14 53 7 52 5 
52 -10 52 -8 52 -1 52 -3 53 1 52 5 52 -4 52 -1 
52 0 52 0 53 0 52 5 52 -3 52 -4 52 1 52 0 
53 6 52 1 52 -1 52 4 52 -4 52 6 53 12 52 -9 
52 -6 52 -8 52 -1 927 4087 100 MP stroke
c10
53 -244 52 81 52 670 52 185 52 938 53 -1282 52 -110 52 -252 
52 -388 52 -58 52 -9 53 226 52 238 52 456 52 -218 52 572 
52 58 53 367 52 -783 52 -799 52 -262 52 139 52 124 53 204 
52 -83 52 95 52 336 52 164 52 -194 53 -260 52 -16 52 -147 
52 261 52 6 52 240 53 -54 52 -162 52 209 52 200 52 -185 
52 -137 53 184 52 140 52 -131 52 -165 52 6 52 -81 53 -332 
52 -177 52 144 52 204 52 167 53 466 52 -244 52 760 52 97 
52 -934 52 -406 53 -233 52 178 52 254 52 187 52 172 52 50 
53 490 52 335 52 -180 52 -248 52 -1262 52 -569 53 -144 52 -127 
52 -6 52 -11 52 4 52 3 53 -5 52 -3 52 -2 52 -1 
52 4 52 3 53 0 52 -3 52 0 52 -3 52 1 52 -1 
53 0 52 -2 52 0 52 3 52 1 52 -3 53 -1 52 0 
52 0 52 5 52 -4 927 4087 100 MP stroke
gr

c10
0 sg
3266 4767 mt 
(Iteration) s
 555 2616 mt  -90 rotate
(Scores) s
90 rotate
2570  282 mt 
(delta=600 \(17 runs; 100 iterations\)) s

end %%Color Dict

eplot
%%EndObject

epage
end

showpage

%%Trailer
%%EOF
