%!PS-Adobe-3.0 EPSF-3.0
%%Creator: MATLAB, The MathWorks, Inc. Version 7.13.0.564 (R2011b). Operating System: Darwin 12.4.0 Darwin Kernel Version 12.4.0: Wed May  1 17:57:12 PDT 2013; root:xnu-2050.24.15~1/RELEASE_X86_64 x86_64.
%%Title: /Users/hengy/sztetris/results/apifromscratch_17runs.eps
%%CreationDate: 08/10/2013  22:01:18
%%DocumentNeededFonts: Helvetica
%%DocumentProcessColors: Cyan Magenta Yellow Black
%%LanguageLevel: 2
%%Pages: 1
%%BoundingBox:    26   186   585   606
%%EndComments

%%BeginProlog
% MathWorks dictionary
/MathWorks 160 dict begin
% definition operators
/bdef {bind def} bind def
/ldef {load def} bind def
/xdef {exch def} bdef
/xstore {exch store} bdef
% operator abbreviations
/c  /clip ldef
/cc /concat ldef
/cp /closepath ldef
/gr /grestore ldef
/gs /gsave ldef
/mt /moveto ldef
/np /newpath ldef
/cm /currentmatrix ldef
/sm /setmatrix ldef
/rm /rmoveto ldef
/rl /rlineto ldef
/s {show newpath} bdef
/sc {setcmykcolor} bdef
/sr /setrgbcolor ldef
/sg /setgray ldef
/w /setlinewidth ldef
/j /setlinejoin ldef
/cap /setlinecap ldef
/rc {rectclip} bdef
/rf {rectfill} bdef
% page state control
/pgsv () def
/bpage {/pgsv save def} bdef
/epage {pgsv restore} bdef
/bplot /gsave ldef
/eplot {stroke grestore} bdef
% orientation switch
/portraitMode 0 def /landscapeMode 1 def /rotateMode 2 def
% coordinate system mappings
/dpi2point 0 def
% font control
/FontSize 0 def
/FMS {/FontSize xstore findfont [FontSize 0 0 FontSize neg 0 0]
  makefont setfont} bdef
/reencode {exch dup where {pop load} {pop StandardEncoding} ifelse
  exch dup 3 1 roll findfont dup length dict begin
  { 1 index /FID ne {def}{pop pop} ifelse } forall
  /Encoding exch def currentdict end definefont pop} bdef
/isroman {findfont /CharStrings get /Agrave known} bdef
/FMSR {3 1 roll 1 index dup isroman {reencode} {pop pop} ifelse
  exch FMS} bdef
/csm {1 dpi2point div -1 dpi2point div scale neg translate
 dup landscapeMode eq {pop -90 rotate}
  {rotateMode eq {90 rotate} if} ifelse} bdef
% line types: solid, dotted, dashed, dotdash
/SO { [] 0 setdash } bdef
/DO { [.5 dpi2point mul 4 dpi2point mul] 0 setdash } bdef
/DA { [6 dpi2point mul] 0 setdash } bdef
/DD { [.5 dpi2point mul 4 dpi2point mul 6 dpi2point mul 4
  dpi2point mul] 0 setdash } bdef
% macros for lines and objects
/L {lineto stroke} bdef
/MP {3 1 roll moveto 1 sub {rlineto} repeat} bdef
/AP {{rlineto} repeat} bdef
/PDlw -1 def
/W {/PDlw currentlinewidth def setlinewidth} def
/PP {closepath eofill} bdef
/DP {closepath stroke} bdef
/MR {4 -2 roll moveto dup  0 exch rlineto exch 0 rlineto
  neg 0 exch rlineto closepath} bdef
/FR {MR stroke} bdef
/PR {MR fill} bdef
/L1i {{currentfile picstr readhexstring pop} image} bdef
/tMatrix matrix def
/MakeOval {newpath tMatrix currentmatrix pop translate scale
0 0 1 0 360 arc tMatrix setmatrix} bdef
/FO {MakeOval stroke} bdef
/PO {MakeOval fill} bdef
/PD {currentlinewidth 2 div 0 360 arc fill
   PDlw -1 eq not {PDlw w /PDlw -1 def} if} def
/FA {newpath tMatrix currentmatrix pop translate scale
  0 0 1 5 -2 roll arc tMatrix setmatrix stroke} bdef
/PA {newpath tMatrix currentmatrix pop	translate 0 0 moveto scale
  0 0 1 5 -2 roll arc closepath tMatrix setmatrix fill} bdef
/FAn {newpath tMatrix currentmatrix pop translate scale
  0 0 1 5 -2 roll arcn tMatrix setmatrix stroke} bdef
/PAn {newpath tMatrix currentmatrix pop translate 0 0 moveto scale
  0 0 1 5 -2 roll arcn closepath tMatrix setmatrix fill} bdef
/vradius 0 def /hradius 0 def /lry 0 def
/lrx 0 def /uly 0 def /ulx 0 def /rad 0 def
/MRR {/vradius xdef /hradius xdef /lry xdef /lrx xdef /uly xdef
  /ulx xdef newpath tMatrix currentmatrix pop ulx hradius add uly
  vradius add translate hradius vradius scale 0 0 1 180 270 arc 
  tMatrix setmatrix lrx hradius sub uly vradius add translate
  hradius vradius scale 0 0 1 270 360 arc tMatrix setmatrix
  lrx hradius sub lry vradius sub translate hradius vradius scale
  0 0 1 0 90 arc tMatrix setmatrix ulx hradius add lry vradius sub
  translate hradius vradius scale 0 0 1 90 180 arc tMatrix setmatrix
  closepath} bdef
/FRR {MRR stroke } bdef
/PRR {MRR fill } bdef
/MlrRR {/lry xdef /lrx xdef /uly xdef /ulx xdef /rad lry uly sub 2 div def
  newpath tMatrix currentmatrix pop ulx rad add uly rad add translate
  rad rad scale 0 0 1 90 270 arc tMatrix setmatrix lrx rad sub lry rad
  sub translate rad rad scale 0 0 1 270 90 arc tMatrix setmatrix
  closepath} bdef
/FlrRR {MlrRR stroke } bdef
/PlrRR {MlrRR fill } bdef
/MtbRR {/lry xdef /lrx xdef /uly xdef /ulx xdef /rad lrx ulx sub 2 div def
  newpath tMatrix currentmatrix pop ulx rad add uly rad add translate
  rad rad scale 0 0 1 180 360 arc tMatrix setmatrix lrx rad sub lry rad
  sub translate rad rad scale 0 0 1 0 180 arc tMatrix setmatrix
  closepath} bdef
/FtbRR {MtbRR stroke } bdef
/PtbRR {MtbRR fill } bdef
/stri 6 array def /dtri 6 array def
/smat 6 array def /dmat 6 array def
/tmat1 6 array def /tmat2 6 array def /dif 3 array def
/asub {/ind2 exch def /ind1 exch def dup dup
  ind1 get exch ind2 get sub exch } bdef
/tri_to_matrix {
  2 0 asub 3 1 asub 4 0 asub 5 1 asub
  dup 0 get exch 1 get 7 -1 roll astore } bdef
/compute_transform {
  dmat dtri tri_to_matrix tmat1 invertmatrix 
  smat stri tri_to_matrix tmat2 concatmatrix } bdef
/ds {stri astore pop} bdef
/dt {dtri astore pop} bdef
/db {2 copy /cols xdef /rows xdef mul dup 3 mul string
  currentfile 
  3 index 0 eq {/ASCIIHexDecode filter}
  {/ASCII85Decode filter 3 index 2 eq {/RunLengthDecode filter} if }
  ifelse exch readstring pop
  dup 0 3 index getinterval /rbmap xdef
  dup 2 index dup getinterval /gbmap xdef
  1 index dup 2 mul exch getinterval /bbmap xdef pop pop}bdef
/it {gs np dtri aload pop moveto lineto lineto cp c
  cols rows 8 compute_transform 
  rbmap gbmap bbmap true 3 colorimage gr}bdef
/il {newpath moveto lineto stroke}bdef
currentdict end def
%%EndProlog

%%BeginSetup
MathWorks begin

0 cap

end
%%EndSetup

%%Page: 1 1
%%BeginPageSetup
%%PageBoundingBox:    26   186   585   606
MathWorks begin
bpage
%%EndPageSetup

%%BeginObject: obj1
bplot

/dpi2point 12 def
portraitMode 0312 7272 csm

    0     0  6719  5033 rc
85 dict begin %Colortable dictionary
/c0 { 0.000000 0.000000 0.000000 sr} bdef
/c1 { 1.000000 1.000000 1.000000 sr} bdef
/c2 { 0.900000 0.000000 0.000000 sr} bdef
/c3 { 0.000000 0.820000 0.000000 sr} bdef
/c4 { 0.000000 0.000000 0.800000 sr} bdef
/c5 { 0.910000 0.820000 0.320000 sr} bdef
/c6 { 1.000000 0.260000 0.820000 sr} bdef
/c7 { 0.000000 0.820000 0.820000 sr} bdef
c0
1 j
1 sg
   0    0 6720 5034 rf
6 w
0 4102 5208 0 0 -4102 873 4479 4 MP
PP
-5208 0 0 4102 5208 0 0 -4102 873 4479 5 MP stroke
4 w
DO
SO
6 w
0 sg
 873 4479 mt 6081 4479 L
 873  377 mt 6081  377 L
 873 4479 mt  873  377 L
6081 4479 mt 6081  377 L
 873 4479 mt 6081 4479 L
 873 4479 mt  873  377 L
 873 4479 mt  873 4426 L
 873  377 mt  873  429 L
%%IncludeResource: font Helvetica
/Helvetica /ISOLatin1Encoding 120 FMSR

 840 4624 mt 
(0) s
1393 4479 mt 1393 4426 L
1393  377 mt 1393  429 L
1327 4624 mt 
(10) s
1914 4479 mt 1914 4426 L
1914  377 mt 1914  429 L
1848 4624 mt 
(20) s
2435 4479 mt 2435 4426 L
2435  377 mt 2435  429 L
2369 4624 mt 
(30) s
2956 4479 mt 2956 4426 L
2956  377 mt 2956  429 L
2890 4624 mt 
(40) s
3477 4479 mt 3477 4426 L
3477  377 mt 3477  429 L
3411 4624 mt 
(50) s
3997 4479 mt 3997 4426 L
3997  377 mt 3997  429 L
3931 4624 mt 
(60) s
4518 4479 mt 4518 4426 L
4518  377 mt 4518  429 L
4452 4624 mt 
(70) s
5039 4479 mt 5039 4426 L
5039  377 mt 5039  429 L
4973 4624 mt 
(80) s
5560 4479 mt 5560 4426 L
5560  377 mt 5560  429 L
5494 4624 mt 
(90) s
6081 4479 mt 6081 4426 L
6081  377 mt 6081  429 L
5981 4624 mt 
(100) s
 873 4479 mt  925 4479 L
6081 4479 mt 6028 4479 L
 635 4523 mt 
(-10) s
 873 4068 mt  925 4068 L
6081 4068 mt 6028 4068 L
 772 4112 mt 
(0) s
 873 3658 mt  925 3658 L
6081 3658 mt 6028 3658 L
 705 3702 mt 
(10) s
 873 3248 mt  925 3248 L
6081 3248 mt 6028 3248 L
 705 3292 mt 
(20) s
 873 2838 mt  925 2838 L
6081 2838 mt 6028 2838 L
 705 2882 mt 
(30) s
 873 2428 mt  925 2428 L
6081 2428 mt 6028 2428 L
 705 2472 mt 
(40) s
 873 2017 mt  925 2017 L
6081 2017 mt 6028 2017 L
 705 2061 mt 
(50) s
 873 1607 mt  925 1607 L
6081 1607 mt 6028 1607 L
 705 1651 mt 
(60) s
 873 1197 mt  925 1197 L
6081 1197 mt 6028 1197 L
 705 1241 mt 
(70) s
 873  787 mt  925  787 L
6081  787 mt 6028  787 L
 705  831 mt 
(80) s
 873  377 mt  925  377 L
6081  377 mt 6028  377 L
 705  421 mt 
(90) s
 873 4479 mt 6081 4479 L
 873  377 mt 6081  377 L
 873 4479 mt  873  377 L
6081 4479 mt 6081  377 L
gs 873 377 5209 4103 rc
/c8 { 0.000000 0.000000 1.000000 sr} bdef
c8
53 -346 52 -240 52 213 52 111 52 296 52 59 52 -13 52 -128 
52 62 52 -142 52 166 52 -101 53 -119 52 -157 52 126 52 -64 
52 -31 52 -141 52 -332 52 30 52 246 52 317 52 -80 52 61 
52 -394 53 190 52 343 52 202 52 138 52 -3 52 -100 52 -371 
52 -106 52 118 52 20 52 -56 52 -302 53 76 52 115 52 199 
52 3 52 59 52 82 52 84 52 -308 52 -471 52 -118 52 22 
52 -164 52 56 53 217 52 268 52 7 52 -133 52 -111 52 136 
52 -111 52 -102 52 46 52 -130 52 61 52 -137 53 85 52 -9 
52 -191 52 -74 52 -185 52 119 52 -147 52 37 52 17 52 -81 
52 94 52 -111 52 81 53 -180 52 -60 52 -47 52 -53 52 109 
52 -95 52 -218 52 -213 52 -93 52 -146 52 -103 52 66 53 59 
52 13 52 -59 52 -103 52 -187 52 -298 52 -351 52 -121 52 -32 
52 -7 52 -4 52 -7 925 4105 100 MP stroke
/c9 { 0.000000 0.500000 0.000000 sr} bdef
c9
53 -275 52 267 52 390 52 118 52 90 52 -399 52 -151 52 266 
52 -20 52 -75 52 206 52 -76 53 -156 52 -125 52 55 52 78 
52 35 52 -9 52 -110 52 46 52 65 52 -125 52 -145 52 -217 
52 -351 53 228 52 39 52 204 52 99 52 -72 52 30 52 30 
52 -218 52 -23 52 119 52 2 52 27 53 142 52 -23 52 -136 
52 -259 52 7 52 125 52 86 52 177 52 24 52 -62 52 -132 
52 93 52 -225 53 -157 52 -34 52 69 52 76 52 69 52 19 
52 55 52 -158 52 -211 52 -86 52 -88 52 -27 53 43 52 52 
52 132 52 130 52 -122 52 -42 52 -234 52 6 52 134 52 30 
52 -5 52 -69 52 -185 53 -154 52 -33 52 2 52 -50 52 -189 
52 -89 52 -111 52 -113 52 -100 52 -138 52 37 52 -6 53 197 
52 -153 52 -149 52 -182 52 -101 52 -177 52 -196 52 -86 52 -13 
52 -4 52 -2 52 -7 925 4105 100 MP stroke
/c10 { 1.000000 0.000000 0.000000 sr} bdef
c10
53 -85 52 171 52 233 52 105 52 -215 52 -138 52 -259 52 46 
52 -70 52 107 52 79 52 -163 53 38 52 4 52 172 52 164 
52 -221 52 74 52 -191 52 -44 52 159 52 239 52 -22 52 111 
52 234 53 -114 52 -316 52 -96 52 92 52 246 52 89 52 138 
52 -61 52 -169 52 -43 52 -234 52 -20 53 120 52 295 52 147 
52 -101 52 -161 52 37 52 -136 52 16 52 -237 52 99 52 126 
52 60 52 -278 53 291 52 -170 52 -131 52 68 52 -50 52 70 
52 43 52 53 52 6 52 118 52 50 52 30 53 -111 52 -203 
52 334 52 12 52 60 52 -151 52 -246 52 -174 52 -184 52 30 
52 65 52 156 52 -33 53 117 52 136 52 -183 52 -201 52 -83 
52 -109 52 -160 52 -177 52 -81 52 -226 52 -62 52 -248 53 -6 
52 -47 52 -103 52 -148 52 -191 52 -257 52 -204 52 -197 52 -121 
52 -23 52 -12 52 -4 925 4106 100 MP stroke
/c11 { 0.000000 0.750000 0.750000 sr} bdef
c11
53 171 52 -91 52 163 52 46 52 -67 52 -121 52 63 52 69 
52 -89 52 8 52 -178 52 -4 53 81 52 121 52 -58 52 -113 
52 107 52 49 52 40 52 94 52 -101 52 122 52 29 52 88 
52 -290 53 90 52 -129 52 270 52 -171 52 130 52 -44 52 83 
52 -234 52 -114 52 -127 52 -49 52 51 53 -12 52 228 52 6 
52 -21 52 214 52 159 52 -13 52 -362 52 -29 52 111 52 -138 
52 42 52 205 53 -14 52 -20 52 -211 52 -204 52 124 52 60 
52 60 52 51 52 150 52 -50 52 -19 52 -27 53 -134 52 -37 
52 -114 52 -65 52 -61 52 145 52 170 52 -5 52 -101 52 12 
52 -37 52 52 52 -78 53 -50 52 -144 52 -167 52 -29 52 33 
52 84 52 -97 52 -51 52 -61 52 92 52 137 52 -96 53 116 
52 -250 52 -343 52 -296 52 -52 52 -74 52 -263 52 -287 52 -176 
52 -86 52 -22 52 -8 925 4105 100 MP stroke
gr

c11
0 sg
 856 4522 mt 
( ) s
6065  419 mt 
( ) s
1 sg
0 737 756 0 0 -737 4709 3883 4 MP
PP
-756 0 0 737 756 0 0 -737 4709 3883 5 MP stroke
4 w
DO
SO
6 w
0 sg
4709 3883 mt 5465 3883 L
4709 3146 mt 5465 3146 L
4709 3883 mt 4709 3146 L
5465 3883 mt 5465 3146 L
4709 3883 mt 5465 3883 L
4709 3883 mt 4709 3146 L
4709 3883 mt 5465 3883 L
4709 3146 mt 5465 3146 L
4709 3883 mt 4709 3146 L
5465 3883 mt 5465 3146 L
5178 3296 mt 
(500) s
gs 4709 3146 757 738 rc
c8
360 0 4781 3253 2 MP stroke
gr

c8
0 sg
5178 3470 mt 
(600) s
gs 4709 3146 757 738 rc
c9
360 0 4781 3427 2 MP stroke
gr

c9
0 sg
5178 3644 mt 
(700) s
gs 4709 3146 757 738 rc
c10
360 0 4781 3601 2 MP stroke
gr

c10
0 sg
5178 3818 mt 
(800) s
gs 4709 3146 757 738 rc
c11
360 0 4781 3775 2 MP stroke
gr

c11

end %%Color Dict

eplot
%%EndObject

epage
end

showpage

%%Trailer
%%EOF
