%!PS-Adobe-3.0 EPSF-3.0
%%Creator: MATLAB, The MathWorks, Inc. Version 7.13.0.564 (R2011b). Operating System: Darwin 12.4.0 Darwin Kernel Version 12.4.0: Wed May  1 17:57:12 PDT 2013; root:xnu-2050.24.15~1/RELEASE_X86_64 x86_64.
%%Title: /Users/hengy/sztetris/results/apifromscratch_36runs.eps
%%CreationDate: 08/14/2013  20:05:29
%%DocumentNeededFonts: Helvetica
%%DocumentProcessColors: Cyan Magenta Yellow Black
%%LanguageLevel: 2
%%Pages: 1
%%BoundingBox:    26   186   585   606
%%EndComments

%%BeginProlog
% MathWorks dictionary
/MathWorks 160 dict begin
% definition operators
/bdef {bind def} bind def
/ldef {load def} bind def
/xdef {exch def} bdef
/xstore {exch store} bdef
% operator abbreviations
/c  /clip ldef
/cc /concat ldef
/cp /closepath ldef
/gr /grestore ldef
/gs /gsave ldef
/mt /moveto ldef
/np /newpath ldef
/cm /currentmatrix ldef
/sm /setmatrix ldef
/rm /rmoveto ldef
/rl /rlineto ldef
/s {show newpath} bdef
/sc {setcmykcolor} bdef
/sr /setrgbcolor ldef
/sg /setgray ldef
/w /setlinewidth ldef
/j /setlinejoin ldef
/cap /setlinecap ldef
/rc {rectclip} bdef
/rf {rectfill} bdef
% page state control
/pgsv () def
/bpage {/pgsv save def} bdef
/epage {pgsv restore} bdef
/bplot /gsave ldef
/eplot {stroke grestore} bdef
% orientation switch
/portraitMode 0 def /landscapeMode 1 def /rotateMode 2 def
% coordinate system mappings
/dpi2point 0 def
% font control
/FontSize 0 def
/FMS {/FontSize xstore findfont [FontSize 0 0 FontSize neg 0 0]
  makefont setfont} bdef
/reencode {exch dup where {pop load} {pop StandardEncoding} ifelse
  exch dup 3 1 roll findfont dup length dict begin
  { 1 index /FID ne {def}{pop pop} ifelse } forall
  /Encoding exch def currentdict end definefont pop} bdef
/isroman {findfont /CharStrings get /Agrave known} bdef
/FMSR {3 1 roll 1 index dup isroman {reencode} {pop pop} ifelse
  exch FMS} bdef
/csm {1 dpi2point div -1 dpi2point div scale neg translate
 dup landscapeMode eq {pop -90 rotate}
  {rotateMode eq {90 rotate} if} ifelse} bdef
% line types: solid, dotted, dashed, dotdash
/SO { [] 0 setdash } bdef
/DO { [.5 dpi2point mul 4 dpi2point mul] 0 setdash } bdef
/DA { [6 dpi2point mul] 0 setdash } bdef
/DD { [.5 dpi2point mul 4 dpi2point mul 6 dpi2point mul 4
  dpi2point mul] 0 setdash } bdef
% macros for lines and objects
/L {lineto stroke} bdef
/MP {3 1 roll moveto 1 sub {rlineto} repeat} bdef
/AP {{rlineto} repeat} bdef
/PDlw -1 def
/W {/PDlw currentlinewidth def setlinewidth} def
/PP {closepath eofill} bdef
/DP {closepath stroke} bdef
/MR {4 -2 roll moveto dup  0 exch rlineto exch 0 rlineto
  neg 0 exch rlineto closepath} bdef
/FR {MR stroke} bdef
/PR {MR fill} bdef
/L1i {{currentfile picstr readhexstring pop} image} bdef
/tMatrix matrix def
/MakeOval {newpath tMatrix currentmatrix pop translate scale
0 0 1 0 360 arc tMatrix setmatrix} bdef
/FO {MakeOval stroke} bdef
/PO {MakeOval fill} bdef
/PD {currentlinewidth 2 div 0 360 arc fill
   PDlw -1 eq not {PDlw w /PDlw -1 def} if} def
/FA {newpath tMatrix currentmatrix pop translate scale
  0 0 1 5 -2 roll arc tMatrix setmatrix stroke} bdef
/PA {newpath tMatrix currentmatrix pop	translate 0 0 moveto scale
  0 0 1 5 -2 roll arc closepath tMatrix setmatrix fill} bdef
/FAn {newpath tMatrix currentmatrix pop translate scale
  0 0 1 5 -2 roll arcn tMatrix setmatrix stroke} bdef
/PAn {newpath tMatrix currentmatrix pop translate 0 0 moveto scale
  0 0 1 5 -2 roll arcn closepath tMatrix setmatrix fill} bdef
/vradius 0 def /hradius 0 def /lry 0 def
/lrx 0 def /uly 0 def /ulx 0 def /rad 0 def
/MRR {/vradius xdef /hradius xdef /lry xdef /lrx xdef /uly xdef
  /ulx xdef newpath tMatrix currentmatrix pop ulx hradius add uly
  vradius add translate hradius vradius scale 0 0 1 180 270 arc 
  tMatrix setmatrix lrx hradius sub uly vradius add translate
  hradius vradius scale 0 0 1 270 360 arc tMatrix setmatrix
  lrx hradius sub lry vradius sub translate hradius vradius scale
  0 0 1 0 90 arc tMatrix setmatrix ulx hradius add lry vradius sub
  translate hradius vradius scale 0 0 1 90 180 arc tMatrix setmatrix
  closepath} bdef
/FRR {MRR stroke } bdef
/PRR {MRR fill } bdef
/MlrRR {/lry xdef /lrx xdef /uly xdef /ulx xdef /rad lry uly sub 2 div def
  newpath tMatrix currentmatrix pop ulx rad add uly rad add translate
  rad rad scale 0 0 1 90 270 arc tMatrix setmatrix lrx rad sub lry rad
  sub translate rad rad scale 0 0 1 270 90 arc tMatrix setmatrix
  closepath} bdef
/FlrRR {MlrRR stroke } bdef
/PlrRR {MlrRR fill } bdef
/MtbRR {/lry xdef /lrx xdef /uly xdef /ulx xdef /rad lrx ulx sub 2 div def
  newpath tMatrix currentmatrix pop ulx rad add uly rad add translate
  rad rad scale 0 0 1 180 360 arc tMatrix setmatrix lrx rad sub lry rad
  sub translate rad rad scale 0 0 1 0 180 arc tMatrix setmatrix
  closepath} bdef
/FtbRR {MtbRR stroke } bdef
/PtbRR {MtbRR fill } bdef
/stri 6 array def /dtri 6 array def
/smat 6 array def /dmat 6 array def
/tmat1 6 array def /tmat2 6 array def /dif 3 array def
/asub {/ind2 exch def /ind1 exch def dup dup
  ind1 get exch ind2 get sub exch } bdef
/tri_to_matrix {
  2 0 asub 3 1 asub 4 0 asub 5 1 asub
  dup 0 get exch 1 get 7 -1 roll astore } bdef
/compute_transform {
  dmat dtri tri_to_matrix tmat1 invertmatrix 
  smat stri tri_to_matrix tmat2 concatmatrix } bdef
/ds {stri astore pop} bdef
/dt {dtri astore pop} bdef
/db {2 copy /cols xdef /rows xdef mul dup 3 mul string
  currentfile 
  3 index 0 eq {/ASCIIHexDecode filter}
  {/ASCII85Decode filter 3 index 2 eq {/RunLengthDecode filter} if }
  ifelse exch readstring pop
  dup 0 3 index getinterval /rbmap xdef
  dup 2 index dup getinterval /gbmap xdef
  1 index dup 2 mul exch getinterval /bbmap xdef pop pop}bdef
/it {gs np dtri aload pop moveto lineto lineto cp c
  cols rows 8 compute_transform 
  rbmap gbmap bbmap true 3 colorimage gr}bdef
/il {newpath moveto lineto stroke}bdef
currentdict end def
%%EndProlog

%%BeginSetup
MathWorks begin

0 cap

end
%%EndSetup

%%Page: 1 1
%%BeginPageSetup
%%PageBoundingBox:    26   186   585   606
MathWorks begin
bpage
%%EndPageSetup

%%BeginObject: obj1
bplot

/dpi2point 12 def
portraitMode 0312 7272 csm

    0     0  6719  5033 rc
85 dict begin %Colortable dictionary
/c0 { 0.000000 0.000000 0.000000 sr} bdef
/c1 { 1.000000 1.000000 1.000000 sr} bdef
/c2 { 0.900000 0.000000 0.000000 sr} bdef
/c3 { 0.000000 0.820000 0.000000 sr} bdef
/c4 { 0.000000 0.000000 0.800000 sr} bdef
/c5 { 0.910000 0.820000 0.320000 sr} bdef
/c6 { 1.000000 0.260000 0.820000 sr} bdef
/c7 { 0.000000 0.820000 0.820000 sr} bdef
c0
1 j
1 sg
   0    0 6720 5034 rf
6 w
0 4102 5208 0 0 -4102 873 4479 4 MP
PP
-5208 0 0 4102 5208 0 0 -4102 873 4479 5 MP stroke
4 w
DO
SO
6 w
0 sg
 873 4479 mt 6081 4479 L
 873  377 mt 6081  377 L
 873 4479 mt  873  377 L
6081 4479 mt 6081  377 L
 873 4479 mt 6081 4479 L
 873 4479 mt  873  377 L
 873 4479 mt  873 4426 L
 873  377 mt  873  429 L
%%IncludeResource: font Helvetica
/Helvetica /ISOLatin1Encoding 192 FMSR

 820 4691 mt 
(0) s
1914 4479 mt 1914 4426 L
1914  377 mt 1914  429 L
1808 4691 mt 
(20) s
2956 4479 mt 2956 4426 L
2956  377 mt 2956  429 L
2850 4691 mt 
(40) s
3997 4479 mt 3997 4426 L
3997  377 mt 3997  429 L
3891 4691 mt 
(60) s
5039 4479 mt 5039 4426 L
5039  377 mt 5039  429 L
4933 4691 mt 
(80) s
6081 4479 mt 6081 4426 L
6081  377 mt 6081  429 L
5921 4691 mt 
(100) s
 873 4479 mt  925 4479 L
6081 4479 mt 6028 4479 L
 513 4550 mt 
(-10) s
 873 4068 mt  925 4068 L
6081 4068 mt 6028 4068 L
 732 4139 mt 
(0) s
 873 3658 mt  925 3658 L
6081 3658 mt 6028 3658 L
 625 3729 mt 
(10) s
 873 3248 mt  925 3248 L
6081 3248 mt 6028 3248 L
 625 3319 mt 
(20) s
 873 2838 mt  925 2838 L
6081 2838 mt 6028 2838 L
 625 2909 mt 
(30) s
 873 2428 mt  925 2428 L
6081 2428 mt 6028 2428 L
 625 2499 mt 
(40) s
 873 2017 mt  925 2017 L
6081 2017 mt 6028 2017 L
 625 2088 mt 
(50) s
 873 1607 mt  925 1607 L
6081 1607 mt 6028 1607 L
 625 1678 mt 
(60) s
 873 1197 mt  925 1197 L
6081 1197 mt 6028 1197 L
 625 1268 mt 
(70) s
 873  787 mt  925  787 L
6081  787 mt 6028  787 L
 625  858 mt 
(80) s
 873  377 mt  925  377 L
6081  377 mt 6028  377 L
 625  448 mt 
(90) s
 873 4479 mt 6081 4479 L
 873  377 mt 6081  377 L
 873 4479 mt  873  377 L
6081 4479 mt 6081  377 L
gs 873 377 5209 4103 rc
/c8 { 0.000000 0.000000 1.000000 sr} bdef
c8
53 -62 52 65 52 39 52 11 52 101 52 -83 52 -45 52 -7 
52 87 52 -13 52 125 52 -1 53 -156 52 -28 52 -61 52 17 
52 -86 52 35 52 33 52 26 52 -16 52 3 52 26 52 93 
52 -135 53 28 52 44 52 -51 52 -23 52 37 52 -45 52 56 
52 19 52 51 52 -65 52 -63 52 75 53 -41 52 0 52 -14 
52 -88 52 -13 52 77 52 11 52 -16 52 6 52 29 52 -2 
52 -47 52 48 53 -37 52 17 52 -36 52 1 52 59 52 1 
52 14 52 -53 52 -31 52 -12 52 -21 52 76 53 127 52 -79 
52 -5 52 -27 52 -13 52 -44 52 -65 52 -15 52 1 52 23 
52 24 52 -29 52 33 53 40 52 -151 52 -58 52 -22 52 -33 
52 21 52 -63 52 -93 52 -29 52 -29 52 19 52 -60 53 -42 
52 -13 52 -40 52 -48 52 -93 52 -169 52 -127 52 -87 52 -35 
52 -10 52 -6 52 -5 925 4105 100 MP stroke
gr

c8
 900 4080 mt  950 4130 L
 950 4080 mt  900 4130 L
 952 4075 mt 1002 4125 L
1002 4075 mt  952 4125 L
1004 4069 mt 1054 4119 L
1054 4069 mt 1004 4119 L
1056 4059 mt 1106 4109 L
1106 4059 mt 1056 4109 L
1108 4024 mt 1158 4074 L
1158 4024 mt 1108 4074 L
1160 3937 mt 1210 3987 L
1210 3937 mt 1160 3987 L
1212 3810 mt 1262 3860 L
1262 3810 mt 1212 3860 L
1264 3641 mt 1314 3691 L
1314 3641 mt 1264 3691 L
1316 3548 mt 1366 3598 L
1366 3548 mt 1316 3598 L
1368 3500 mt 1418 3550 L
1418 3500 mt 1368 3550 L
1420 3460 mt 1470 3510 L
1470 3460 mt 1420 3510 L
1472 3447 mt 1522 3497 L
1522 3447 mt 1472 3497 L
1525 3405 mt 1575 3455 L
1575 3405 mt 1525 3455 L
1577 3345 mt 1627 3395 L
1627 3345 mt 1577 3395 L
1629 3364 mt 1679 3414 L
1679 3364 mt 1629 3414 L
1681 3335 mt 1731 3385 L
1731 3335 mt 1681 3385 L
1733 3306 mt 1783 3356 L
1783 3306 mt 1733 3356 L
1785 3213 mt 1835 3263 L
1835 3213 mt 1785 3263 L
1837 3150 mt 1887 3200 L
1887 3150 mt 1837 3200 L
1889 3171 mt 1939 3221 L
1939 3171 mt 1889 3221 L
1941 3138 mt 1991 3188 L
1991 3138 mt 1941 3188 L
1993 3116 mt 2043 3166 L
2043 3116 mt 1993 3166 L
2045 3058 mt 2095 3108 L
2095 3058 mt 2045 3108 L
2097 2907 mt 2147 2957 L
2147 2907 mt 2097 2957 L
2150 2947 mt 2200 2997 L
2200 2947 mt 2150 2997 L
2202 2980 mt 2252 3030 L
2252 2980 mt 2202 3030 L
2254 2951 mt 2304 3001 L
2304 2951 mt 2254 3001 L
2306 2975 mt 2356 3025 L
2356 2975 mt 2306 3025 L
2358 2998 mt 2408 3048 L
2408 2998 mt 2358 3048 L
2410 2999 mt 2460 3049 L
2460 2999 mt 2410 3049 L
2462 2984 mt 2512 3034 L
2512 2984 mt 2462 3034 L
2514 2919 mt 2564 2969 L
2564 2919 mt 2514 2969 L
2566 2875 mt 2616 2925 L
2616 2875 mt 2566 2925 L
2618 2862 mt 2668 2912 L
2668 2862 mt 2618 2912 L
2670 2835 mt 2720 2885 L
2720 2835 mt 2670 2885 L
2722 2830 mt 2772 2880 L
2772 2830 mt 2722 2880 L
2774 2751 mt 2824 2801 L
2824 2751 mt 2774 2801 L
2827 2878 mt 2877 2928 L
2877 2878 mt 2827 2928 L
2879 2954 mt 2929 3004 L
2929 2954 mt 2879 3004 L
2931 2933 mt 2981 2983 L
2981 2933 mt 2931 2983 L
2983 2921 mt 3033 2971 L
3033 2921 mt 2983 2971 L
3035 2890 mt 3085 2940 L
3085 2890 mt 3035 2940 L
3087 2837 mt 3137 2887 L
3137 2837 mt 3087 2887 L
3139 2851 mt 3189 2901 L
3189 2851 mt 3139 2901 L
3191 2852 mt 3241 2902 L
3241 2852 mt 3191 2902 L
3243 2911 mt 3293 2961 L
3293 2911 mt 3243 2961 L
3295 2912 mt 3345 2962 L
3345 2912 mt 3295 2962 L
3347 2876 mt 3397 2926 L
3397 2876 mt 3347 2926 L
3399 2893 mt 3449 2943 L
3449 2893 mt 3399 2943 L
3452 2856 mt 3502 2906 L
3502 2856 mt 3452 2906 L
3504 2904 mt 3554 2954 L
3554 2904 mt 3504 2954 L
3556 2857 mt 3606 2907 L
3606 2857 mt 3556 2907 L
3608 2855 mt 3658 2905 L
3658 2855 mt 3608 2905 L
3660 2884 mt 3710 2934 L
3710 2884 mt 3660 2934 L
3712 2890 mt 3762 2940 L
3762 2890 mt 3712 2940 L
3764 2874 mt 3814 2924 L
3814 2874 mt 3764 2924 L
3816 2885 mt 3866 2935 L
3866 2885 mt 3816 2935 L
3868 2962 mt 3918 3012 L
3918 2962 mt 3868 3012 L
3920 2949 mt 3970 2999 L
3970 2949 mt 3920 2999 L
3972 2861 mt 4022 2911 L
4022 2861 mt 3972 2911 L
4024 2847 mt 4074 2897 L
4074 2847 mt 4024 2897 L
4076 2847 mt 4126 2897 L
4126 2847 mt 4076 2897 L
4129 2806 mt 4179 2856 L
4179 2806 mt 4129 2856 L
4181 2881 mt 4231 2931 L
4231 2881 mt 4181 2931 L
4233 2818 mt 4283 2868 L
4283 2818 mt 4233 2868 L
4285 2753 mt 4335 2803 L
4335 2753 mt 4285 2803 L
4337 2804 mt 4387 2854 L
4387 2804 mt 4337 2854 L
4389 2823 mt 4439 2873 L
4439 2823 mt 4389 2873 L
4441 2879 mt 4491 2929 L
4491 2879 mt 4441 2929 L
4493 2834 mt 4543 2884 L
4543 2834 mt 4493 2884 L
4545 2871 mt 4595 2921 L
4595 2871 mt 4545 2921 L
4597 2848 mt 4647 2898 L
4647 2848 mt 4597 2898 L
4649 2797 mt 4699 2847 L
4699 2797 mt 4649 2847 L
4701 2841 mt 4751 2891 L
4751 2841 mt 4701 2891 L
4754 2869 mt 4804 2919 L
4804 2869 mt 4754 2919 L
4806 2734 mt 4856 2784 L
4856 2734 mt 4806 2784 L
4858 2827 mt 4908 2877 L
4908 2827 mt 4858 2877 L
4910 2853 mt 4960 2903 L
4960 2853 mt 4910 2903 L
4962 2856 mt 5012 2906 L
5012 2856 mt 4962 2906 L
5014 2840 mt 5064 2890 L
5064 2840 mt 5014 2890 L
5066 2866 mt 5116 2916 L
5116 2866 mt 5066 2916 L
5118 2899 mt 5168 2949 L
5168 2899 mt 5118 2949 L
5170 2934 mt 5220 2984 L
5220 2934 mt 5170 2984 L
5222 2848 mt 5272 2898 L
5272 2848 mt 5222 2898 L
5274 2865 mt 5324 2915 L
5324 2865 mt 5274 2915 L
5326 2804 mt 5376 2854 L
5376 2804 mt 5326 2854 L
5378 2776 mt 5428 2826 L
5428 2776 mt 5378 2826 L
5431 2620 mt 5481 2670 L
5481 2620 mt 5431 2670 L
5483 2619 mt 5533 2669 L
5533 2619 mt 5483 2669 L
5535 2744 mt 5585 2794 L
5585 2744 mt 5535 2794 L
5587 2731 mt 5637 2781 L
5637 2731 mt 5587 2781 L
5639 2818 mt 5689 2868 L
5689 2818 mt 5639 2868 L
5691 2811 mt 5741 2861 L
5741 2811 mt 5691 2861 L
5743 2766 mt 5793 2816 L
5793 2766 mt 5743 2816 L
5795 2683 mt 5845 2733 L
5845 2683 mt 5795 2733 L
5847 2784 mt 5897 2834 L
5897 2784 mt 5847 2834 L
5899 2795 mt 5949 2845 L
5949 2795 mt 5899 2845 L
5951 2834 mt 6001 2884 L
6001 2834 mt 5951 2884 L
6003 2899 mt 6053 2949 L
6053 2899 mt 6003 2949 L
6056 2837 mt 6106 2887 L
6106 2837 mt 6056 2887 L
gs 873 377 5209 4103 rc
gr

0 sg
3130 4887 mt 
(Iteration) s
 415 2728 mt  -90 rotate
(Scores) s
90 rotate
 846 4548 mt 
( ) s
6055  445 mt 
( ) s
gs 873 377 5209 4103 rc
DD
/c9 { 0.000000 0.500000 0.000000 sr} bdef
c9
53 32 52 -90 52 -155 52 126 52 -61 52 -43 52 27 52 -118 
52 194 52 -10 52 101 52 -36 53 -108 52 43 52 -38 52 -93 
52 -16 52 102 52 -221 52 -85 52 195 52 104 52 -67 52 77 
52 -118 53 134 52 -46 52 127 52 -186 52 -12 52 -266 52 47 
52 20 52 16 52 -59 52 98 52 -170 53 47 52 37 52 124 
52 110 52 -27 52 -204 52 -77 52 91 52 38 52 -62 52 -89 
52 155 52 -191 53 -178 52 -22 52 15 52 -164 52 -209 52 -33 
52 20 52 86 52 -71 52 27 52 51 52 173 53 -137 52 -132 
52 13 52 11 52 -10 52 -131 52 -82 52 -153 52 -154 52 -80 
52 -56 52 -37 52 54 53 30 52 -32 52 -69 52 29 52 -193 
52 5 52 -63 52 -168 52 57 52 -71 52 -91 52 -40 53 52 
52 22 52 -60 52 -48 52 -114 52 -86 52 -93 52 -115 52 -57 
52 -22 52 -4 52 -5 925 4105 100 MP stroke
gr

c9
DD
gs 852 1062 5303 3117 rc
SO
0 j
0 -58 -58 0 0 58 58 0 896 4076 5 MP
DP
0 -58 -58 0 0 58 58 0 948 4071 5 MP
DP
0 -58 -58 0 0 58 58 0 1000 4067 5 MP
DP
0 -58 -58 0 0 58 58 0 1052 4045 5 MP
DP
0 -58 -58 0 0 58 58 0 1104 3988 5 MP
DP
0 -58 -58 0 0 58 58 0 1156 3873 5 MP
DP
0 -58 -58 0 0 58 58 0 1208 3780 5 MP
DP
0 -58 -58 0 0 58 58 0 1260 3694 5 MP
DP
0 -58 -58 0 0 58 58 0 1312 3580 5 MP
DP
0 -58 -58 0 0 58 58 0 1364 3532 5 MP
DP
0 -58 -58 0 0 58 58 0 1416 3472 5 MP
DP
0 -58 -58 0 0 58 58 0 1468 3494 5 MP
DP
0 -58 -58 0 0 58 58 0 1521 3546 5 MP
DP
0 -58 -58 0 0 58 58 0 1573 3506 5 MP
DP
0 -58 -58 0 0 58 58 0 1625 3415 5 MP
DP
0 -58 -58 0 0 58 58 0 1677 3344 5 MP
DP
0 -58 -58 0 0 58 58 0 1729 3401 5 MP
DP
0 -58 -58 0 0 58 58 0 1781 3233 5 MP
DP
0 -58 -58 0 0 58 58 0 1833 3170 5 MP
DP
0 -58 -58 0 0 58 58 0 1885 3175 5 MP
DP
0 -58 -58 0 0 58 58 0 1937 2982 5 MP
DP
0 -58 -58 0 0 58 58 0 1989 3011 5 MP
DP
0 -58 -58 0 0 58 58 0 2041 2942 5 MP
DP
0 -58 -58 0 0 58 58 0 2093 2910 5 MP
DP
0 -58 -58 0 0 58 58 0 2146 2940 5 MP
DP
0 -58 -58 0 0 58 58 0 2198 2994 5 MP
DP
0 -58 -58 0 0 58 58 0 2250 2957 5 MP
DP
0 -58 -58 0 0 58 58 0 2302 2901 5 MP
DP
0 -58 -58 0 0 58 58 0 2354 2821 5 MP
DP
0 -58 -58 0 0 58 58 0 2406 2667 5 MP
DP
0 -58 -58 0 0 58 58 0 2458 2514 5 MP
DP
0 -58 -58 0 0 58 58 0 2510 2432 5 MP
DP
0 -58 -58 0 0 58 58 0 2562 2301 5 MP
DP
0 -58 -58 0 0 58 58 0 2614 2291 5 MP
DP
0 -58 -58 0 0 58 58 0 2666 2302 5 MP
DP
0 -58 -58 0 0 58 58 0 2718 2315 5 MP
DP
0 -58 -58 0 0 58 58 0 2770 2183 5 MP
DP
0 -58 -58 0 0 58 58 0 2823 2046 5 MP
DP
0 -58 -58 0 0 58 58 0 2875 2219 5 MP
DP
0 -58 -58 0 0 58 58 0 2927 2270 5 MP
DP
0 -58 -58 0 0 58 58 0 2979 2297 5 MP
DP
0 -58 -58 0 0 58 58 0 3031 2226 5 MP
DP
0 -58 -58 0 0 58 58 0 3083 2312 5 MP
DP
0 -58 -58 0 0 58 58 0 3135 2332 5 MP
DP
0 -58 -58 0 0 58 58 0 3187 2299 5 MP
DP
0 -58 -58 0 0 58 58 0 3239 2090 5 MP
DP
0 -58 -58 0 0 58 58 0 3291 1926 5 MP
DP
0 -58 -58 0 0 58 58 0 3343 1941 5 MP
DP
0 -58 -58 0 0 58 58 0 3395 1919 5 MP
DP
0 -58 -58 0 0 58 58 0 3448 1741 5 MP
DP
0 -58 -58 0 0 58 58 0 3500 1550 5 MP
DP
0 -58 -58 0 0 58 58 0 3552 1705 5 MP
DP
0 -58 -58 0 0 58 58 0 3604 1616 5 MP
DP
0 -58 -58 0 0 58 58 0 3656 1554 5 MP
DP
0 -58 -58 0 0 58 58 0 3708 1592 5 MP
DP
0 -58 -58 0 0 58 58 0 3760 1683 5 MP
DP
0 -58 -58 0 0 58 58 0 3812 1606 5 MP
DP
0 -58 -58 0 0 58 58 0 3864 1402 5 MP
DP
0 -58 -58 0 0 58 58 0 3916 1375 5 MP
DP
0 -58 -58 0 0 58 58 0 3968 1485 5 MP
DP
0 -58 -58 0 0 58 58 0 4020 1609 5 MP
DP
0 -58 -58 0 0 58 58 0 4072 1646 5 MP
DP
0 -58 -58 0 0 58 58 0 4125 1693 5 MP
DP
0 -58 -58 0 0 58 58 0 4177 1523 5 MP
DP
0 -58 -58 0 0 58 58 0 4229 1621 5 MP
DP
0 -58 -58 0 0 58 58 0 4281 1562 5 MP
DP
0 -58 -58 0 0 58 58 0 4333 1578 5 MP
DP
0 -58 -58 0 0 58 58 0 4385 1598 5 MP
DP
0 -58 -58 0 0 58 58 0 4437 1645 5 MP
DP
0 -58 -58 0 0 58 58 0 4489 1379 5 MP
DP
0 -58 -58 0 0 58 58 0 4541 1367 5 MP
DP
0 -58 -58 0 0 58 58 0 4593 1181 5 MP
DP
0 -58 -58 0 0 58 58 0 4645 1308 5 MP
DP
0 -58 -58 0 0 58 58 0 4697 1262 5 MP
DP
0 -58 -58 0 0 58 58 0 4750 1396 5 MP
DP
0 -58 -58 0 0 58 58 0 4802 1278 5 MP
DP
0 -58 -58 0 0 58 58 0 4854 1355 5 MP
DP
0 -58 -58 0 0 58 58 0 4906 1288 5 MP
DP
0 -58 -58 0 0 58 58 0 4958 1392 5 MP
DP
0 -58 -58 0 0 58 58 0 5010 1587 5 MP
DP
0 -58 -58 0 0 58 58 0 5062 1502 5 MP
DP
0 -58 -58 0 0 58 58 0 5114 1281 5 MP
DP
0 -58 -58 0 0 58 58 0 5166 1383 5 MP
DP
0 -58 -58 0 0 58 58 0 5218 1367 5 MP
DP
0 -58 -58 0 0 58 58 0 5270 1274 5 MP
DP
0 -58 -58 0 0 58 58 0 5322 1236 5 MP
DP
0 -58 -58 0 0 58 58 0 5374 1279 5 MP
DP
0 -58 -58 0 0 58 58 0 5427 1171 5 MP
DP
0 -58 -58 0 0 58 58 0 5479 1135 5 MP
DP
0 -58 -58 0 0 58 58 0 5531 1236 5 MP
DP
0 -58 -58 0 0 58 58 0 5583 1226 5 MP
DP
0 -58 -58 0 0 58 58 0 5635 1420 5 MP
DP
0 -58 -58 0 0 58 58 0 5687 1302 5 MP
DP
0 -58 -58 0 0 58 58 0 5739 1329 5 MP
DP
0 -58 -58 0 0 58 58 0 5791 1286 5 MP
DP
0 -58 -58 0 0 58 58 0 5843 1225 5 MP
DP
0 -58 -58 0 0 58 58 0 5895 1351 5 MP
DP
0 -58 -58 0 0 58 58 0 5947 1196 5 MP
DP
0 -58 -58 0 0 58 58 0 5999 1106 5 MP
DP
0 -58 -58 0 0 58 58 0 6052 1138 5 MP
DP
DD
gr

gs 873 377 5209 4103 rc
SO
/c10 { 1.000000 0.000000 0.000000 sr} bdef
c10
53 212 52 -197 52 -89 52 -7 52 -41 52 -109 52 8 52 -115 
52 45 52 28 52 -3 52 -40 53 -87 52 6 52 175 52 5 
52 151 52 13 52 83 52 259 52 12 52 -138 52 -389 52 -166 
52 63 53 179 52 106 52 130 52 85 52 49 52 -176 52 -217 
52 -238 52 -262 52 14 52 81 52 78 53 -7 52 141 52 34 
52 66 52 -29 52 -44 52 -164 52 37 52 38 52 121 52 -30 
52 -94 52 83 53 -20 52 6 52 112 52 125 52 -59 52 -158 
52 -139 52 -44 52 82 52 -33 52 -137 52 -101 53 -97 52 44 
52 33 52 142 52 -4 52 142 52 78 52 20 52 -245 52 -113 
52 -60 52 -57 52 238 53 -88 52 -49 52 39 52 -266 52 6 
52 -214 52 29 52 52 52 60 52 -46 52 -331 52 -270 53 -94 
52 -115 52 -81 52 -275 52 -307 52 -405 52 -263 52 -116 52 -35 
52 -8 52 -7 52 -5 925 4105 100 MP stroke
DO
/c11 { 0.000000 0.750000 0.750000 sr} bdef
c11
53 -113 52 89 52 17 52 101 52 66 52 -71 52 28 52 -96 
52 157 52 4 52 211 52 31 53 -209 52 -96 52 -36 52 11 
52 -155 52 -12 52 49 52 79 52 -67 52 19 52 83 52 66 
52 -87 53 5 52 -21 52 -17 52 46 52 -38 52 20 52 64 
52 -34 52 -5 52 35 52 10 52 -137 53 -62 52 15 52 -21 
52 -58 52 -7 52 52 52 47 52 84 52 -50 52 60 52 7 
52 -49 52 51 53 -29 52 27 52 -9 52 26 52 47 52 2 
52 -53 52 -45 52 -53 52 2 52 -48 52 123 53 114 52 -40 
52 42 52 -53 52 -75 52 -5 52 -11 52 6 52 -4 52 49 
52 50 52 -24 52 10 53 95 52 -298 52 -122 52 36 52 -57 
52 8 52 -129 52 -193 52 -26 52 -62 52 -4 52 -28 53 -65 
52 -29 52 -80 52 -90 52 -195 52 -322 52 -221 52 -159 52 -69 
52 -22 52 -11 52 -8 925 4106 100 MP stroke
gr

c11
DO
SO
  36   36  925 4106 FO
  36   36  977 4098 FO
  36   36 1029 4087 FO
  36   36 1081 4065 FO
  36   36 1133 3996 FO
  36   36 1185 3837 FO
  36   36 1237 3616 FO
  36   36 1289 3294 FO
  36   36 1341 3099 FO
  36   36 1393 3009 FO
  36   36 1445 2929 FO
  36   36 1497 2900 FO
  36   36 1550 2835 FO
  36   36 1602 2807 FO
  36   36 1654 2803 FO
  36   36 1706 2741 FO
  36   36 1758 2715 FO
  36   36 1810 2522 FO
  36   36 1862 2393 FO
  36   36 1914 2401 FO
  36   36 1966 2344 FO
  36   36 2018 2380 FO
  36   36 2070 2258 FO
  36   36 2122 1960 FO
  36   36 2175 2055 FO
  36   36 2227 2065 FO
  36   36 2279 2041 FO
  36   36 2331 2091 FO
  36   36 2383 2140 FO
  36   36 2435 2136 FO
  36   36 2487 2142 FO
  36   36 2539 2131 FO
  36   36 2591 2126 FO
  36   36 2643 2051 FO
  36   36 2695 1998 FO
  36   36 2747 2040 FO
  36   36 2799 2000 FO
  36   36 2852 2114 FO
  36   36 2904 2237 FO
  36   36 2956 2189 FO
  36   36 3008 2191 FO
  36   36 3060 2138 FO
  36   36 3112 2093 FO
  36   36 3164 2040 FO
  36   36 3216 2042 FO
  36   36 3268 2089 FO
  36   36 3320 2115 FO
  36   36 3372 2106 FO
  36   36 3424 2133 FO
  36   36 3477 2104 FO
  36   36 3529 2155 FO
  36   36 3581 2106 FO
  36   36 3633 2113 FO
  36   36 3685 2173 FO
  36   36 3737 2123 FO
  36   36 3789 2207 FO
  36   36 3841 2254 FO
  36   36 3893 2306 FO
  36   36 3945 2299 FO
  36   36 3997 2241 FO
  36   36 4049 2220 FO
  36   36 4101 2235 FO
  36   36 4154 2173 FO
  36   36 4206 2036 FO
  36   36 4258 2046 FO
  36   36 4310 2081 FO
  36   36 4362 2076 FO
  36   36 4414 2042 FO
  36   36 4466 2106 FO
  36   36 4518 2126 FO
  36   36 4570 2088 FO
  36   36 4622 2134 FO
  36   36 4674 2117 FO
  36   36 4726 2096 FO
  36   36 4779 2101 FO
  36   36 4831 2014 FO
  36   36 4883 2080 FO
  36   36 4935 2163 FO
  36   36 4987 2182 FO
  36   36 5039 2115 FO
  36   36 5091 2194 FO
  36   36 5143 2243 FO
  36   36 5195 2231 FO
  36   36 5247 2076 FO
  36   36 5299 2087 FO
  36   36 5351 2051 FO
  36   36 5403 1955 FO
  36   36 5456 1746 FO
  36   36 5508 1777 FO
  36   36 5560 1988 FO
  36   36 5612 1992 FO
  36   36 5664 2149 FO
  36   36 5716 2053 FO
  36   36 5768 2081 FO
  36   36 5820 2010 FO
  36   36 5872 2076 FO
  36   36 5924 2177 FO
  36   36 5976 2194 FO
  36   36 6028 2283 FO
  36   36 6081 2170 FO
DO
gs 873 377 5209 4103 rc
SO
gr

SO
1 sg
0 1072 1498 0 0 -1072 4260 4308 4 MP
PP
-1498 0 0 1072 1498 0 0 -1072 4260 4308 5 MP stroke
4 w
DO
SO
6 w
0 sg
4260 4308 mt 5758 4308 L
4260 3236 mt 5758 3236 L
4260 4308 mt 4260 3236 L
5758 4308 mt 5758 3236 L
4260 4308 mt 5758 4308 L
4260 4308 mt 4260 3236 L
4260 4308 mt 5758 4308 L
4260 3236 mt 5758 3236 L
4260 4308 mt 4260 3236 L
5758 4308 mt 5758 3236 L
4728 3454 mt 
(delta=100) s
gs 4260 3236 1499 1073 rc
c8
360 0 4331 3385 2 MP stroke
gs 4438 3312 147 147 rc
4486 3360 mt 4536 3410 L
4536 3360 mt 4486 3410 L
gr

gr

c8
0 sg
4728 3712 mt 
(delta=300) s
gs 4260 3236 1499 1073 rc
DD
c9
360 0 4331 3643 2 MP stroke
4511 3643 PD
gs 4438 3570 147 147 rc
SO
0 j
0 -58 -58 0 0 58 58 0 4482 3614 5 MP
DP
DD
gr

gr

c9
DD
0 sg
4728 3969 mt 
(delta=600) s
gs 4260 3236 1499 1073 rc
SO
c10
360 0 4331 3900 2 MP stroke
4511 3900 PD
gr

c10
SO
0 sg
4728 4227 mt 
(delta=1000) s
gs 4260 3236 1499 1073 rc
DO
c11
360 0 4331 4158 2 MP stroke
SO
gs 4438 4085 147 147 rc
  36   36 4511 4158 FO
gr

gr

c11

end %%Color Dict

eplot
%%EndObject

epage
end

showpage

%%Trailer
%%EOF
